a 0.946000
s 1.142000
j 1.285000
k 1.518000
a 1.726000
s 2.043000
j 2.160000
k 2.415000
a 2.657000
s 2.999000
j 3.124000
k 3.424000
a 3.648000
k 3.911000
a 4.134000
k 4.382000
a 4.565000
s 4.936000
j 5.082000
k 5.342000
a 5.568000
s 5.884000
j 6.003000
k 6.300000
a 6.497000
s 6.839000
j 6.973000
k 7.245000
a 7.490000
k 7.721000
a 7.926000
k 8.202000
a 8.422000
s 8.733000
j 8.863000
k 9.153000
a 9.375000
s 9.718000
j 9.847000
k 10.149000
a 10.339000
s 10.678000
j 10.820000
k 11.150000
a 11.370000
k 11.600000
a 11.795000
k 12.037000
a 12.267000
s 12.569000
j 12.703000
k 12.995000
a 13.208000
s 13.555000
j 13.709000
k 13.983000
k 14.210000
k 14.660000
k 15.171000
k 15.678000
a 16.150000
j 16.390000
s 16.644000
k 16.846000
a 17.098000
s 17.478000
j 17.793000
k 18.072000
a 18.415000
j 18.768000
s 19.015000
k 19.258000
a 19.719000
j 20.017000
s 20.630000
k 20.963000
a 21.313000
j 21.646000
s 21.923000
k 22.241000
a 22.574000
s 22.874000
j 23.125000
s 23.388000
k 23.814000
a 24.094000
j 24.326000
s 24.554000
k 24.772000
k 25.143000
k 25.500000
a 25.943000
j 26.204000
a 26.512000
a 26.750000
a 27.120000
a 27.482000
s 27.924000
j 28.136000
k 28.390000
a 28.657000
k 28.997000
s 29.326000
j 29.586000
a 29.854000
k 30.097000
s 30.340000
j 30.575000
s 30.813000
j 31.032000
a 31.503000
k 31.908000
s 32.266000
j 32.474000
a 32.796000
k 33.127000
s 33.456000
j 33.793000
a 34.146000
k 34.392000
s 34.648000
k 34.893000
s 35.134000
j 35.345000
a 35.584000
j 35.780000
a 36.047000
j 36.289000
a 36.577000
j 36.750000
a 37.002000
k 37.266000
s 37.521000
k 37.738000
s 38.008000
k 38.205000
s 38.465000
k 38.703000
a 39.184000
j 39.415000
a 39.673000
j 39.885000
a 40.151000
j 40.409000
a 40.604000
j 40.831000
a 41.061000
k 41.296000
s 41.594000
k 41.848000
s 42.111000
j 42.389000
a 42.809000
k 43.214000
s 43.484000
j 43.724000
a 44.005000
s 44.294000
j 44.470000
k 44.732000
a 44.946000
k 45.377000
s 45.839000
k 46.081000
s 46.393000
a 46.874000
s 47.386000
j 47.810000
s 48.299000
k 48.536000
s 49.001000
j 49.206000
s 49.491000
k 49.941000
a 50.216000
j 50.452000
s 50.729000
k 50.949000
a 51.410000
j 51.723000
s 51.993000
k 52.194000
a 52.433000
j 52.689000
j 53.149000
s 53.598000
k 54.027000
a 54.491000
s 55.033000
j 55.243000
a 55.547000
j 55.789000
s 56.048000
k 56.256000
a 56.713000
s 56.981000
j 57.242000
a 57.656000
s 57.922000
j 58.132000
a 58.596000
s 59.062000
s 59.588000
s 60.102000
s 60.645000
k 61.148000
k 61.659000
j 62.137000
a 63.091000
s 63.398000
j 63.621000
k 63.915000
a 64.347000
s 64.592000
j 64.900000
a 65.308000
s 65.570000
j 65.818000
k 66.080000
a 66.309000
j 66.571000
s 66.801000
k 67.262000
j 67.505000
s 67.741000
a 67.963000
k 68.198000
j 68.437000
s 68.719000
k 69.179000
j 69.413000
s 69.660000
k 69.895000
a 70.120000
j 70.340000
s 70.614000
k 70.866000
a 71.095000
j 71.333000
s 71.567000
k 71.801000
a 72.045000
k 72.296000
a 72.563000
k 72.803000
a 72.999000
k 73.220000
s 73.485000
j 73.701000
s 73.969000
j 74.195000
s 74.457000
j 74.700000
s 74.930000
j 75.156000
s 75.401000
k 75.640000
a 75.829000
k 76.107000
a 76.369000
k 76.619000
a 76.855000
k 77.074000
s 77.366000
j 77.597000
s 77.851000
j 78.031000
s 78.307000
k 78.534000
a 78.741000
s 78.969000
j 79.171000
k 79.498000
a 79.713000
s 79.994000
j 80.202000
k 80.493000
a 80.919000
s 81.158000
a 81.419000
s 81.665000
j 81.901000
k 82.109000
a 82.407000
a 82.847000
s 83.105000
j 83.345000
k 83.594000
a 83.811000
s 84.072000
j 84.293000
k 84.671000
a 85.014000
s 85.274000
j 85.493000
k 85.740000
a 85.974000
s 86.217000
j 86.406000
k 86.683000
a 87.152000
s 87.417000
a 87.638000
s 87.898000
k 88.173000
a 88.584000
s 88.855000
a 89.073000
s 89.353000
a 89.601000
s 89.855000
k 90.096000
a 90.516000
s 90.772000
j 90.995000
k 91.250000
a 91.496000
s 91.756000
j 91.973000
k 92.224000
a 92.405000
s 92.658000
j 92.882000
k 93.486000
k 93.752000
s 94.859000
s 95.344000
j 95.666000
k 95.878000
k 96.045000
k 96.195000
k 96.391000
a 96.807000
s 97.131000
j 97.358000
k 97.660000
a 97.980000
k 98.209000
s 98.463000
j 98.670000
a 98.917000
k 99.144000
s 99.441000
j 99.662000
a 99.871000
k 100.117000
s 100.357000
j 100.599000
k 101.086000
k 101.337000
a 101.604000
s 101.844000
j 102.061000
k 102.291000
a 102.513000
s 102.774000
j 103.002000
k 103.273000
a 103.496000
s 103.723000
j 103.940000
k 104.229000
a 104.475000
k 104.922000
s 105.339000
j 105.532000
a 105.714000
k 105.905000
s 106.119000
j 106.295000
a 106.490000
k 106.682000
s 106.879000
j 107.059000
a 107.250000
k 107.439000
s 107.602000
j 107.745000
a 107.873000
k 108.052000
s 108.187000
k 108.363000
a 108.784000
j 108.943000
k 109.195000
s 109.383000
k 109.610000
s 109.820000
k 109.966000
s 110.139000
k 110.316000
a 110.698000
s 110.950000
j 111.110000
k 111.326000
a 111.541000
j 111.731000
s 111.918000
k 112.151000
a 112.621000
s 113.125000
a 113.552000
s 113.815000
a 114.225000
s 114.501000
a 114.743000
s 115.225000
a 115.496000
s 115.740000
a 116.021000
s 116.263000
a 116.539000
s 116.778000
a 117.007000
s 117.215000
a 117.436000
s 117.658000
k 117.879000
j 118.139000
k 118.397000
j 118.621000
k 118.862000
j 119.096000
k 119.351000
j 119.587000
k 119.837000
a 120.287000
s 120.539000
j 120.753000
k 120.999000
a 121.235000
k 121.495000
s 121.735000
j 121.970000
a 122.206000
k 122.486000
s 122.862000
j 123.127000
a 123.399000
k 123.642000
s 123.893000
j 124.123000
a 124.374000
k 124.634000
s 124.843000
j 125.074000
a 125.324000
k 125.565000
s 125.819000
k 126.060000
s 126.311000
k 126.549000
s 126.809000
k 127.061000
s 127.268000
k 127.491000
a 128.386000
s 128.689000
j 128.937000
k 129.192000
a 129.636000
s 129.863000
j 130.144000
a 130.623000
s 130.870000
j 131.090000
a 131.370000
s 131.596000
j 131.806000
k 132.047000
a 132.524000
s 132.764000
j 133.022000
k 133.490000
k 133.995000
a 134.393000
s 134.650000
j 134.920000
k 135.396000
k 135.862000
k 136.334000
k 136.852000
k 137.293000
j 137.518000
s 137.803000
k 138.248000
j 138.521000
s 138.795000
k 139.230000
j 139.474000
s 139.712000
a 139.940000
k 140.202000
j 140.445000
s 140.680000
a 141.181000
a 141.679000
k 142.163000
j 142.364000
s 142.626000
a 143.096000
a 143.330000
a 143.602000
a 143.850000
k 144.215000
k 144.577000
a 144.811000
s 145.029000
j 145.252000
k 145.488000
a 145.763000
k 146.210000
j 146.444000
s 146.675000
a 146.913000
k 147.175000
j 147.415000
s 147.702000
k 148.162000
a 148.621000
s 148.855000
j 149.083000
k 149.361000
a 149.588000
s 149.924000
j 150.285000
k 150.554000
a 150.973000
s 151.239000
j 151.461000
k 151.730000
a 151.974000
s 152.236000
j 152.469000
k 152.700000
a 152.952000
s 153.175000
j 153.450000
k 153.898000
j 154.166000
s 154.405000
k 154.653000
j 154.899000
s 155.119000
a 155.354000
k 155.828000
j 156.065000
s 156.311000
k 156.551000
j 156.793000
s 157.027000
a 157.251000
k 157.587000
j 157.960000
s 158.201000
a 158.437000
s 158.718000
j 158.989000
k 159.210000
a 160.164000
s 160.634000
j 161.104000
k 161.615000
a 161.857000
s 162.099000
j 162.319000
k 162.543000
a 162.772000
s 163.003000
j 163.468000
k 163.723000
a 163.976000
s 164.435000
j 164.665000
k 164.954000
a 165.405000
s 165.882000
j 166.122000
k 166.383000
a 166.586000
k 166.863000
j 167.308000
s 167.554000
k 167.808000
j 168.289000
s 168.513000
k 168.793000
j 169.234000
s 169.496000
k 169.756000
j 169.995000
s 170.232000
k 170.448000
j 170.697000
s 171.179000
k 171.410000
j 171.681000
s 171.905000
k 172.153000
j 172.394000
s 172.626000
k 172.846000
j 173.113000
s 173.344000
k 173.597000
j 173.847000
s 174.068000
a 174.304000
k 174.579000
a 175.049000
s 175.499000
k 176.221000
a 176.990000
k 177.461000
s 177.924000
j 178.166000
a 178.627000
s 178.855000
j 179.082000
a 179.355000
k 179.602000
s 179.846000
j 180.084000
a 180.297000
k 180.539000
s 180.775000
j 181.023000
a 181.229000
k 181.477000
s 181.758000
j 182.011000
a 182.227000
k 182.473000
s 182.730000
j 182.974000
a 183.184000
k 183.431000
s 183.678000
j 183.884000
a 184.106000
k 184.328000
s 184.609000
j 184.869000
k 185.145000
j 185.356000
s 185.569000
a 185.782000
k 186.053000
j 186.295000
s 186.502000
a 186.773000
k 187.057000
s 187.287000
j 187.487000
a 187.695000
k 187.939000
s 188.183000
j 188.419000
a 188.670000
k 188.926000
s 189.175000
j 189.404000
a 189.632000
k 189.887000
s 190.162000
j 190.384000
a 190.615000
k 190.823000
s 191.071000
j 191.290000
a 191.483000
k 191.779000
s 192.024000
j 192.253000
s 192.537000
k 192.784000
k 193.040000
k 193.257000
k 193.493000
k 193.750000
k 194.096000
k 194.482000
a 194.713000
a 194.927000
a 195.188000
a 195.409000
a 195.772000
s 196.164000
s 196.395000
s 196.641000
s 196.884000
s 197.130000
s 197.344000
s 197.650000
j 198.077000
j 198.313000
j 198.551000
j 198.785000
j 199.039000
j 199.283000
j 199.528000
j 199.874000
j 200.212000
k 201.175000
k 201.413000
a 202.439000
s 202.675000
j 202.891000
k 203.132000
a 203.364000
s 203.949000
j 204.183000
k 204.392000
a 204.602000
s 204.832000
j 205.038000
k 205.309000
a 205.709000
s 205.939000
j 206.179000
k 206.466000
k 206.737000
j 206.952000
s 207.177000
a 207.437000
k 207.886000
s 208.143000
k 208.837000
j 209.087000
