a 3.461000
s 3.925000
k 4.406000
j 4.901000
a 5.321000
k 5.823000
a 6.243000
k 6.806000
a 7.207000
k 7.687000
s 8.134000
j 8.623000
a 9.083000
k 9.559000
s 9.999000
j 10.459000
a 10.734000
k 10.974000
s 11.435000
k 11.895000
s 12.326000
j 12.674000
a 13.247000
k 13.740000
a 14.219000
s 14.713000
k 15.198000
j 15.724000
a 16.140000
s 16.566000
j 16.909000
k 17.272000
a 17.952000
k 18.426000
a 18.783000
j 18.908000
s 19.223000
k 19.357000
a 19.643000
j 19.834000
s 20.288000
j 20.553000
s 20.808000
k 20.913000
s 21.131000
j 21.394000
s 21.644000
k 21.875000
a 22.135000
s 22.582000
j 22.761000
s 22.990000
j 23.117000
s 23.420000
k 23.565000
a 24.026000
s 24.316000
j 24.546000
k 24.701000
s 24.922000
j 25.193000
k 25.438000
s 25.678000
a 25.919000
k 26.423000
s 26.903000
j 27.135000
k 27.393000
a 27.849000
j 28.071000
s 28.321000
k 28.516000
a 28.766000
s 29.007000
j 29.221000
k 29.477000
a 29.721000
k 30.177000
s 30.628000
j 30.846000
k 31.117000
a 31.562000
j 31.803000
s 32.064000
k 32.147000
a 32.347000
j 32.674000
s 32.910000
k 33.128000
a 33.414000
s 33.895000
j 34.410000
k 34.896000
a 35.370000
j 35.582000
s 35.810000
k 35.893000
a 36.101000
j 36.422000
s 36.666000
k 36.883000
a 37.148000
j 37.638000
s 38.172000
k 38.623000
a 39.129000
j 39.554000
s 39.678000
k 39.916000
a 40.155000
j 40.410000
s 40.680000
k 40.942000
s 41.456000
k 41.937000
k 42.407000
a 42.866000
s 43.306000
j 43.543000
k 43.783000
j 44.011000
s 44.231000
a 44.463000
k 44.739000
s 45.187000
k 45.404000
a 45.625000
j 45.874000
s 46.154000
k 46.595000
a 47.027000
s 47.506000
j 47.709000
k 48.002000
a 48.221000
k 48.470000
s 48.916000
j 49.137000
a 49.403000
k 49.621000
s 49.893000
j 50.111000
a 50.326000
s 50.563000
a 50.799000
s 51.012000
k 51.283000
j 51.532000
k 51.758000
j 52.000000
a 52.189000
s 52.448000
a 52.669000
s 52.921000
k 53.179000
j 53.406000
k 53.644000
j 53.871000
a 54.084000
s 54.325000
j 54.556000
k 54.796000
j 55.013000
s 55.219000
a 55.449000
k 55.703000
s 55.968000
k 56.188000
s 56.433000
k 56.662000
a 56.897000
j 57.125000
a 57.349000
j 57.604000
s 57.855000
k 58.064000
a 58.304000
j 58.576000
s 58.815000
k 59.020000
a 59.231000
j 59.516000
s 59.741000
a 61.816000
s 62.072000
j 62.283000
a 62.519000
s 62.717000
j 62.993000
k 63.238000
a 63.430000
k 63.680000
s 63.945000
j 64.394000
s 64.620000
k 64.854000
a 65.075000
j 65.565000
s 65.806000
k 66.035000
a 66.251000
j 66.506000
s 66.722000
k 66.938000
a 67.183000
s 67.433000
j 67.704000
k 68.128000
j 68.374000
s 68.603000
a 68.845000
k 69.308000
s 69.563000
j 69.776000
s 70.034000
k 70.260000
s 70.510000
j 70.737000
a 70.950000
s 71.191000
j 71.450000
a 71.853000
s 72.133000
j 72.372000
k 72.634000
j 73.061000
s 73.317000
a 73.527000
k 73.787000
j 74.034000
s 74.275000
a 74.477000
k 74.760000
j 74.964000
s 75.209000
k 75.620000
j 75.886000
s 76.096000
a 76.345000
s 76.622000
j 76.846000
k 77.076000
a 77.296000
j 77.532000
s 77.743000
k 77.958000
a 78.182000
j 78.414000
j 78.668000
j 78.879000
j 79.144000
j 79.380000
j 79.620000
j 79.865000
j 80.118000
a 80.340000
s 80.569000
k 80.832000
a 81.261000
s 81.515000
j 81.726000
s 81.971000
k 82.195000
a 82.446000
j 82.678000
s 82.924000
k 83.136000
a 83.342000
j 83.608000
s 83.843000
k 84.095000
a 84.289000
s 84.584000
j 85.015000
k 85.264000
a 85.465000
s 85.740000
k 85.967000
a 86.206000
j 86.448000
s 86.691000
k 86.821000
a 87.152000
j 87.407000
s 87.646000
k 87.863000
a 88.081000
j 88.331000
s 88.772000
k 89.002000
a 89.240000
j 89.494000
s 89.928000
k 90.174000
a 90.418000
j 90.664000
s 90.863000
k 91.080000
a 91.296000
j 91.567000
s 91.801000
k 92.030000
a 92.276000
s 92.525000
j 92.777000
k 93.026000
j 93.251000
s 93.453000
a 93.698000
k 93.932000
s 94.169000
j 94.393000
a 94.578000
k 94.822000
s 95.045000
j 95.313000
a 95.559000
k 95.825000
s 96.066000
j 96.226000
s 96.319000
k 96.559000
a 96.755000
j 97.021000
s 97.252000
k 97.500000
a 97.691000
j 97.952000
s 98.147000
k 98.387000
a 98.522000
j 98.633000
s 98.869000
k 99.092000
a 99.333000
j 99.587000
s 99.828000
k 100.045000
a 100.260000
j 100.390000
s 100.680000
k 100.951000
a 101.214000
j 101.455000
s 101.705000
k 101.921000
a 102.151000
j 102.261000
s 102.555000
k 102.845000
a 103.095000
j 103.361000
s 103.604000
k 103.828000
a 104.083000
j 104.172000
s 104.504000
k 104.780000
a 105.013000
j 105.224000
s 105.443000
k 105.664000
a 105.914000
j 106.019000
s 106.316000
k 106.585000
a 106.830000
j 107.082000
s 107.305000
j 107.531000
a 107.765000
k 108.001000
s 108.225000
a 108.442000
s 108.723000
j 108.927000
k 109.176000
a 109.396000
s 109.653000
j 109.864000
k 110.115000
a 110.333000
s 110.572000
k 110.799000
j 111.033000
s 111.271000
a 111.479000
k 111.711000
j 111.940000
s 112.125000
a 112.379000
k 112.672000
s 112.810000
k 112.991000
a 113.200000
j 113.352000
s 113.473000
k 113.607000
s 113.842000
j 114.053000
a 114.280000
s 114.531000
j 114.744000
k 115.037000
a 115.228000
s 115.494000
j 115.744000
k 115.995000
a 116.205000
j 116.495000
s 116.596000
k 116.816000
a 117.024000
j 117.260000
s 117.490000
k 117.711000
a 117.956000
s 118.237000
j 118.501000
k 118.770000
a 118.979000
s 119.248000
j 119.478000
k 119.714000
a 119.923000
s 120.187000
j 120.328000
s 120.537000
k 120.798000
a 121.005000
j 121.272000
s 121.518000
k 121.761000
a 121.996000
j 122.241000
s 122.506000
k 122.766000
a 122.995000
j 123.256000
s 123.462000
k 123.716000
a 123.922000
s 124.161000
j 124.406000
k 124.668000
a 124.847000
s 125.103000
j 125.348000
k 125.598000
k 125.844000
k 126.064000
k 126.308000
k 126.534000
k 126.779000
k 127.013000
a 127.377000
s 127.630000
j 127.749000
k 128.010000
a 128.147000
s 128.427000
j 128.579000
k 129.102000
j 129.356000
s 129.573000
a 129.712000
k 129.899000
j 130.183000
s 130.374000
a 130.638000
k 130.899000
j 131.300000
s 131.459000
a 131.691000
k 131.875000
j 132.140000
s 132.317000
a 132.601000
s 132.887000
j 133.141000
k 133.366000
a 133.517000
s 133.762000
j 134.016000
k 134.257000
a 134.448000
k 134.712000
s 135.153000
j 135.386000
a 135.628000
k 135.852000
s 136.095000
j 136.323000
a 136.569000
k 136.815000
s 137.045000
j 137.306000
j 137.540000
s 137.755000
k 137.990000
a 138.166000
j 138.420000
s 138.667000
k 138.898000
s 139.257000
j 139.431000
a 139.623000
k 139.873000
s 140.078000
j 140.338000
a 140.549000
s 140.840000
k 141.194000
a 141.409000
j 141.692000
s 141.892000
k 142.170000
a 142.465000
s 142.631000
j 142.930000
k 143.119000
a 143.392000
s 143.611000
j 144.102000
k 144.332000
a 144.557000
s 144.742000
j 144.963000
k 145.202000
a 145.409000
s 145.653000
j 145.933000
k 146.245000
j 146.395000
s 146.675000
a 146.838000
k 147.123000
j 147.305000
s 147.597000
a 147.836000
k 148.105000
j 148.338000
s 148.461000
a 148.686000
k 148.947000
j 149.212000
s 149.417000
a 149.706000
s 150.188000
k 150.452000
j 150.700000
a 150.910000
s 151.158000
k 151.364000
a 151.575000
j 151.831000
s 152.050000
k 152.274000
a 152.489000
s 152.719000
j 152.960000
k 153.217000
a 153.442000
s 153.687000
j 153.928000
a 154.158000
k 154.369000
s 154.597000
j 154.862000
a 155.373000
k 155.614000
s 155.857000
j 156.052000
a 156.235000
k 156.496000
s 156.707000
j 156.979000
a 157.244000
k 157.726000
j 158.207000
s 158.660000
a 159.115000
s 159.597000
j 160.062000
k 160.301000
j 160.733000
s 161.363000
a 161.822000
s 162.388000
j 162.643000
k 163.100000
s 163.388000
j 163.613000
a 163.780000
k 164.026000
s 164.266000
a 164.496000
k 165.125000
j 165.418000
s 165.650000
k 165.861000
j 166.142000
k 166.408000
s 167.028000
j 167.256000
a 167.523000
k 167.782000
s 168.218000
j 168.437000
a 168.683000
k 168.909000
s 169.169000
j 169.398000
a 169.631000
s 169.870000
k 170.109000
j 170.356000
a 170.587000
s 170.819000
j 171.067000
k 171.310000
a 171.501000
s 171.737000
j 171.966000
k 172.243000
j 172.476000
s 172.722000
k 173.142000
j 173.402000
s 173.597000
a 173.849000
a 174.329000
s 174.569000
j 174.795000
a 175.064000
s 175.298000
j 175.534000
k 175.764000
k 176.000000
j 176.232000
s 176.461000
k 176.886000
j 177.130000
s 177.345000
a 177.601000
a 178.061000
s 178.324000
j 178.553000
a 178.777000
s 179.012000
j 179.267000
k 179.527000
a 179.744000
s 179.969000
j 180.230000
a 180.634000
s 180.875000
j 181.106000
k 181.355000
k 181.810000
j 182.045000
s 182.250000
k 182.527000
j 182.770000
s 182.992000
a 183.222000
k 183.481000
j 183.718000
s 183.978000
k 184.393000
a 184.614000
j 184.848000
s 185.079000
k 185.318000
a 185.594000
j 185.825000
s 186.034000
k 186.240000
a 186.471000
j 186.732000
s 186.972000
k 187.190000
a 187.682000
j 188.146000
s 188.434000
k 188.561000
a 188.847000
j 189.066000
s 189.312000
k 189.538000
a 189.793000
j 190.035000
s 190.258000
k 190.508000
a 190.744000
j 190.983000
s 191.224000
j 191.461000
s 191.715000
j 191.925000
s 192.141000
j 192.361000
s 192.601000
k 192.846000
a 192.946000
k 193.074000
a 193.198000
k 193.311000
a 193.420000
k 193.527000
a 193.658000
k 193.766000
a 193.888000
k 193.991000
a 194.102000
k 194.263000
a 194.402000
k 194.503000
s 194.649000
j 194.772000
s 194.872000
j 195.007000
s 195.099000
j 195.235000
s 195.327000
j 195.448000
s 195.550000
j 195.665000
s 195.759000
j 195.879000
s 195.975000
j 196.084000
s 196.205000
k 196.419000
a 196.779000
s 197.015000
j 197.212000
a 197.462000
s 197.692000
j 197.922000
k 198.166000
k 198.433000
j 198.652000
s 198.910000
k 199.322000
j 199.582000
s 199.782000
a 200.037000
k 200.280000
j 200.520000
s 200.708000
a 200.994000
k 201.235000
s 201.474000
j 201.559000
s 201.666000
k 201.917000
a 202.155000
s 202.384000
j 202.636000
a 203.056000
s 203.316000
j 203.550000
k 203.811000
a 204.049000
s 204.291000
k 204.526000
a 204.768000
j 205.008000
s 205.239000
k 205.323000
a 205.409000
j 205.688000
s 205.915000
k 206.144000
a 206.402000
s 206.810000
j 207.045000
k 207.315000
a 207.531000
s 207.805000
j 208.037000
a 208.282000
k 208.536000
s 208.763000
j 208.996000
a 209.073000
k 209.196000
s 209.434000
j 209.677000
a 209.892000
s 210.158000
j 210.384000
k 210.643000
a 210.860000
s 211.050000
j 211.329000
k 211.613000
a 211.855000
s 212.091000
j 212.309000
k 212.569000
j 212.791000
s 212.967000
a 213.220000
k 213.464000
s 213.682000
j 213.921000
a 214.126000
k 214.286000
s 214.403000
j 214.663000
a 214.868000
k 215.118000
s 215.361000
j 215.594000
a 215.809000
k 216.053000
s 216.285000
a 216.638000
s 216.944000
j 217.214000
k 217.451000
a 217.630000
s 217.905000
j 218.125000
k 218.362000
a 218.581000
s 218.867000
k 219.082000
j 219.347000
s 219.583000
a 219.812000
k 220.038000
j 220.298000
s 220.443000
a 220.718000
k 220.974000
s 221.228000
k 221.519000
s 221.731000
k 221.917000
s 222.190000
k 222.319000
s 222.582000
k 222.830000
s 223.072000
k 223.278000
s 223.517000
j 223.796000
a 224.023000
j 224.126000
a 224.272000
j 224.502000
s 224.753000
j 225.009000
a 225.179000
j 225.455000
s 225.674000
j 225.920000
a 226.120000
j 226.380000
s 226.587000
k 226.860000
s 226.986000
j 227.255000
s 227.515000
k 227.740000
s 227.950000
j 228.187000
a 228.414000
s 228.658000
k 228.936000
j 229.174000
s 229.414000
a 229.662000
s 229.903000
k 230.134000
j 230.344000
s 230.547000
a 230.784000
s 230.945000
j 231.184000
k 231.425000
j 231.679000
s 231.900000
a 232.136000
k 232.377000
j 232.642000
s 232.877000
a 233.170000
k 233.601000
j 233.836000
s 234.031000
a 234.288000
k 234.517000
j 234.684000
s 234.903000
a 235.154000
a 235.443000
s 235.703000
j 235.975000
k 236.209000
a 236.419000
s 236.645000
j 236.885000
k 237.115000
k 237.402000
j 237.630000
s 237.840000
a 238.075000
k 238.313000
j 238.466000
s 238.657000
a 238.903000
s 239.203000
j 239.419000
k 239.734000
a 239.899000
s 240.155000
j 240.404000
k 240.670000
a 240.880000
s 241.130000
j 241.359000
k 241.600000
a 241.791000
s 242.040000
j 242.256000
k 242.495000
j 242.738000
s 242.937000
a 243.197000
k 243.458000
a 245.307000
