('C:\\2DGP\\2017-2DGP\\Labs\\UntilMusicFinished\\build\\mygame\\out00-PKG.pkg',
 {'BINARY': 1,
  'DATA': 1,
  'EXECUTABLE': 1,
  'EXTENSION': 1,
  'PYMODULE': 1,
  'PYSOURCE': 1,
  'PYZ': 0},
 [('out00-PYZ.pyz',
   'C:\\2DGP\\2017-2DGP\\Labs\\UntilMusicFinished\\build\\mygame\\out00-PYZ.pyz',
   'PYZ'),
  ('struct',
   'C:\\Users\\ZaeWon\\AppData\\Local\\Programs\\Python\\Python36\\lib\\struct.pyo',
   'PYMODULE'),
  ('pyimod01_os_path',
   'C:\\Users\\ZaeWon\\AppData\\Local\\Programs\\Python\\Python36\\lib\\site-packages\\PyInstaller\\loader\\pyimod01_os_path.pyc',
   'PYMODULE'),
  ('pyimod02_archive',
   'C:\\Users\\ZaeWon\\AppData\\Local\\Programs\\Python\\Python36\\lib\\site-packages\\PyInstaller\\loader\\pyimod02_archive.pyc',
   'PYMODULE'),
  ('pyimod03_importers',
   'C:\\Users\\ZaeWon\\AppData\\Local\\Programs\\Python\\Python36\\lib\\site-packages\\PyInstaller\\loader\\pyimod03_importers.pyc',
   'PYMODULE'),
  ('pyiboot01_bootstrap',
   'C:\\Users\\ZaeWon\\AppData\\Local\\Programs\\Python\\Python36\\lib\\site-packages\\PyInstaller\\loader\\pyiboot01_bootstrap.py',
   'PYSOURCE'),
  ('pyi_rth_pkgres',
   'C:\\Users\\ZaeWon\\AppData\\Local\\Programs\\Python\\Python36\\lib\\site-packages\\PyInstaller\\loader\\rthooks\\pyi_rth_pkgres.py',
   'PYSOURCE'),
  ('pyi_rth_win32comgenpy',
   'C:\\Users\\ZaeWon\\AppData\\Local\\Programs\\Python\\Python36\\lib\\site-packages\\PyInstaller\\loader\\rthooks\\pyi_rth_win32comgenpy.py',
   'PYSOURCE'),
  ('pyi_rth_multiprocessing',
   'C:\\Users\\ZaeWon\\AppData\\Local\\Programs\\Python\\Python36\\lib\\site-packages\\PyInstaller\\loader\\rthooks\\pyi_rth_multiprocessing.py',
   'PYSOURCE'),
  ('mygame',
   'C:\\2DGP\\2017-2DGP\\Labs\\UntilMusicFinished\\mygame.py',
   'PYSOURCE'),
  ('api-ms-win-crt-locale-l1-1-0.dll',
   'C:\\Program Files\\TortoiseGit\\bin\\api-ms-win-crt-locale-l1-1-0.dll',
   'BINARY'),
  ('api-ms-win-crt-runtime-l1-1-0.dll',
   'C:\\Program Files\\TortoiseGit\\bin\\api-ms-win-crt-runtime-l1-1-0.dll',
   'BINARY'),
  ('api-ms-win-crt-math-l1-1-0.dll',
   'C:\\Program Files\\TortoiseGit\\bin\\api-ms-win-crt-math-l1-1-0.dll',
   'BINARY'),
  ('api-ms-win-crt-heap-l1-1-0.dll',
   'C:\\Program Files\\TortoiseGit\\bin\\api-ms-win-crt-heap-l1-1-0.dll',
   'BINARY'),
  ('VCRUNTIME140.dll',
   'C:\\Users\\ZaeWon\\AppData\\Local\\Programs\\Python\\Python36\\VCRUNTIME140.dll',
   'BINARY'),
  ('api-ms-win-crt-stdio-l1-1-0.dll',
   'C:\\Program Files\\TortoiseGit\\bin\\api-ms-win-crt-stdio-l1-1-0.dll',
   'BINARY'),
  ('python36.dll',
   'C:\\Users\\ZaeWon\\AppData\\Local\\Programs\\Python\\Python36\\python36.dll',
   'BINARY'),
  ('ucrtbase.dll',
   'C:\\Program Files\\TortoiseGit\\bin\\ucrtbase.dll',
   'BINARY'),
  ('api-ms-win-crt-convert-l1-1-0.dll',
   'C:\\Program Files\\TortoiseGit\\bin\\api-ms-win-crt-convert-l1-1-0.dll',
   'BINARY'),
  ('api-ms-win-crt-string-l1-1-0.dll',
   'C:\\Program Files\\TortoiseGit\\bin\\api-ms-win-crt-string-l1-1-0.dll',
   'BINARY'),
  ('api-ms-win-crt-time-l1-1-0.dll',
   'C:\\Program Files\\TortoiseGit\\bin\\api-ms-win-crt-time-l1-1-0.dll',
   'BINARY'),
  ('api-ms-win-crt-process-l1-1-0.dll',
   'C:\\Program Files\\TortoiseGit\\bin\\api-ms-win-crt-process-l1-1-0.dll',
   'BINARY'),
  ('api-ms-win-crt-environment-l1-1-0.dll',
   'C:\\Program Files\\TortoiseGit\\bin\\api-ms-win-crt-environment-l1-1-0.dll',
   'BINARY'),
  ('api-ms-win-crt-filesystem-l1-1-0.dll',
   'C:\\Program Files\\TortoiseGit\\bin\\api-ms-win-crt-filesystem-l1-1-0.dll',
   'BINARY'),
  ('api-ms-win-crt-conio-l1-1-0.dll',
   'C:\\Program Files\\TortoiseGit\\bin\\api-ms-win-crt-conio-l1-1-0.dll',
   'BINARY'),
  ('api-ms-win-core-localization-l1-2-0.dll',
   'C:\\Program '
   'Files\\TortoiseGit\\bin\\api-ms-win-core-localization-l1-2-0.dll',
   'BINARY'),
  ('api-ms-win-core-processthreads-l1-1-1.dll',
   'C:\\Program '
   'Files\\TortoiseGit\\bin\\api-ms-win-core-processthreads-l1-1-1.dll',
   'BINARY'),
  ('api-ms-win-core-memory-l1-1-0.dll',
   'C:\\Program Files\\TortoiseGit\\bin\\api-ms-win-core-memory-l1-1-0.dll',
   'BINARY'),
  ('api-ms-win-core-timezone-l1-1-0.dll',
   'C:\\Program Files\\TortoiseGit\\bin\\api-ms-win-core-timezone-l1-1-0.dll',
   'BINARY'),
  ('api-ms-win-core-interlocked-l1-1-0.dll',
   'C:\\Program '
   'Files\\TortoiseGit\\bin\\api-ms-win-core-interlocked-l1-1-0.dll',
   'BINARY'),
  ('api-ms-win-core-sysinfo-l1-1-0.dll',
   'C:\\Program Files\\TortoiseGit\\bin\\api-ms-win-core-sysinfo-l1-1-0.dll',
   'BINARY'),
  ('api-ms-win-core-file-l1-1-0.dll',
   'C:\\Program Files\\TortoiseGit\\bin\\api-ms-win-core-file-l1-1-0.dll',
   'BINARY'),
  ('api-ms-win-core-console-l1-1-0.dll',
   'C:\\Program Files\\TortoiseGit\\bin\\api-ms-win-core-console-l1-1-0.dll',
   'BINARY'),
  ('api-ms-win-core-datetime-l1-1-0.dll',
   'C:\\Program Files\\TortoiseGit\\bin\\api-ms-win-core-datetime-l1-1-0.dll',
   'BINARY'),
  ('api-ms-win-core-debug-l1-1-0.dll',
   'C:\\Program Files\\TortoiseGit\\bin\\api-ms-win-core-debug-l1-1-0.dll',
   'BINARY'),
  ('api-ms-win-core-namedpipe-l1-1-0.dll',
   'C:\\Program Files\\TortoiseGit\\bin\\api-ms-win-core-namedpipe-l1-1-0.dll',
   'BINARY'),
  ('api-ms-win-core-synch-l1-1-0.dll',
   'C:\\Program Files\\TortoiseGit\\bin\\api-ms-win-core-synch-l1-1-0.dll',
   'BINARY'),
  ('api-ms-win-core-file-l1-2-0.dll',
   'C:\\Program Files\\TortoiseGit\\bin\\api-ms-win-core-file-l1-2-0.dll',
   'BINARY'),
  ('api-ms-win-core-processenvironment-l1-1-0.dll',
   'C:\\Program '
   'Files\\TortoiseGit\\bin\\api-ms-win-core-processenvironment-l1-1-0.dll',
   'BINARY'),
  ('api-ms-win-core-file-l2-1-0.dll',
   'C:\\Program Files\\TortoiseGit\\bin\\api-ms-win-core-file-l2-1-0.dll',
   'BINARY'),
  ('api-ms-win-core-util-l1-1-0.dll',
   'C:\\Program Files\\TortoiseGit\\bin\\api-ms-win-core-util-l1-1-0.dll',
   'BINARY'),
  ('api-ms-win-core-synch-l1-2-0.dll',
   'C:\\Program Files\\TortoiseGit\\bin\\api-ms-win-core-synch-l1-2-0.dll',
   'BINARY'),
  ('api-ms-win-core-processthreads-l1-1-0.dll',
   'C:\\Program '
   'Files\\TortoiseGit\\bin\\api-ms-win-core-processthreads-l1-1-0.dll',
   'BINARY'),
  ('api-ms-win-core-profile-l1-1-0.dll',
   'C:\\Program Files\\TortoiseGit\\bin\\api-ms-win-core-profile-l1-1-0.dll',
   'BINARY'),
  ('api-ms-win-core-libraryloader-l1-1-0.dll',
   'C:\\Program '
   'Files\\TortoiseGit\\bin\\api-ms-win-core-libraryloader-l1-1-0.dll',
   'BINARY'),
  ('api-ms-win-core-errorhandling-l1-1-0.dll',
   'C:\\Program '
   'Files\\TortoiseGit\\bin\\api-ms-win-core-errorhandling-l1-1-0.dll',
   'BINARY'),
  ('api-ms-win-core-heap-l1-1-0.dll',
   'C:\\Program Files\\TortoiseGit\\bin\\api-ms-win-core-heap-l1-1-0.dll',
   'BINARY'),
  ('api-ms-win-core-rtlsupport-l1-1-0.dll',
   'C:\\Program Files\\TortoiseGit\\bin\\api-ms-win-core-rtlsupport-l1-1-0.dll',
   'BINARY'),
  ('api-ms-win-core-string-l1-1-0.dll',
   'C:\\Program Files\\TortoiseGit\\bin\\api-ms-win-core-string-l1-1-0.dll',
   'BINARY'),
  ('api-ms-win-core-handle-l1-1-0.dll',
   'C:\\Program Files\\TortoiseGit\\bin\\api-ms-win-core-handle-l1-1-0.dll',
   'BINARY'),
  ('pywintypes36.dll',
   'C:\\Users\\ZaeWon\\AppData\\Local\\Programs\\Python\\Python36\\lib\\site-packages\\pypiwin32_system32\\pywintypes36.dll',
   'BINARY'),
  ('pythoncom36.dll',
   'C:\\Users\\ZaeWon\\AppData\\Local\\Programs\\Python\\Python36\\lib\\site-packages\\pypiwin32_system32\\pythoncom36.dll',
   'BINARY'),
  ('_decimal',
   'C:\\Users\\ZaeWon\\AppData\\Local\\Programs\\Python\\Python36\\DLLs\\_decimal.pyd',
   'EXTENSION'),
  ('_ctypes',
   'C:\\Users\\ZaeWon\\AppData\\Local\\Programs\\Python\\Python36\\DLLs\\_ctypes.pyd',
   'EXTENSION'),
  ('_multiprocessing',
   'C:\\Users\\ZaeWon\\AppData\\Local\\Programs\\Python\\Python36\\DLLs\\_multiprocessing.pyd',
   'EXTENSION'),
  ('win32trace',
   'C:\\Users\\ZaeWon\\AppData\\Local\\Programs\\Python\\Python36\\lib\\site-packages\\win32\\win32trace.pyd',
   'EXTENSION'),
  ('win32ui',
   'C:\\Users\\ZaeWon\\AppData\\Local\\Programs\\Python\\Python36\\lib\\site-packages\\Pythonwin\\win32ui.pyd',
   'EXTENSION'),
  ('_win32sysloader',
   'C:\\Users\\ZaeWon\\AppData\\Local\\Programs\\Python\\Python36\\lib\\site-packages\\win32\\_win32sysloader.pyd',
   'EXTENSION'),
  ('win32api',
   'C:\\Users\\ZaeWon\\AppData\\Local\\Programs\\Python\\Python36\\lib\\site-packages\\win32\\win32api.pyd',
   'EXTENSION'),
  ('win32com.shell.shell',
   'C:\\Users\\ZaeWon\\AppData\\Local\\Programs\\Python\\Python36\\lib\\site-packages\\win32comext\\shell\\shell.pyd',
   'EXTENSION'),
  ('win32wnet',
   'C:\\Users\\ZaeWon\\AppData\\Local\\Programs\\Python\\Python36\\lib\\site-packages\\win32\\win32wnet.pyd',
   'EXTENSION'),
  ('_ssl',
   'C:\\Users\\ZaeWon\\AppData\\Local\\Programs\\Python\\Python36\\DLLs\\_ssl.pyd',
   'EXTENSION'),
  ('unicodedata',
   'C:\\Users\\ZaeWon\\AppData\\Local\\Programs\\Python\\Python36\\DLLs\\unicodedata.pyd',
   'EXTENSION'),
  ('pyexpat',
   'C:\\Users\\ZaeWon\\AppData\\Local\\Programs\\Python\\Python36\\DLLs\\pyexpat.pyd',
   'EXTENSION'),
  ('_hashlib',
   'C:\\Users\\ZaeWon\\AppData\\Local\\Programs\\Python\\Python36\\DLLs\\_hashlib.pyd',
   'EXTENSION'),
  ('_bz2',
   'C:\\Users\\ZaeWon\\AppData\\Local\\Programs\\Python\\Python36\\DLLs\\_bz2.pyd',
   'EXTENSION'),
  ('_lzma',
   'C:\\Users\\ZaeWon\\AppData\\Local\\Programs\\Python\\Python36\\DLLs\\_lzma.pyd',
   'EXTENSION'),
  ('_socket',
   'C:\\Users\\ZaeWon\\AppData\\Local\\Programs\\Python\\Python36\\DLLs\\_socket.pyd',
   'EXTENSION'),
  ('select',
   'C:\\Users\\ZaeWon\\AppData\\Local\\Programs\\Python\\Python36\\DLLs\\select.pyd',
   'EXTENSION'),
  ('pygame.imageext',
   'C:\\Users\\ZaeWon\\AppData\\Local\\Programs\\Python\\Python36\\lib\\site-packages\\pygame\\imageext.cp36-win_amd64.pyd',
   'EXTENSION'),
  ('pygame.fastevent',
   'C:\\Users\\ZaeWon\\AppData\\Local\\Programs\\Python\\Python36\\lib\\site-packages\\pygame\\fastevent.cp36-win_amd64.pyd',
   'EXTENSION'),
  ('pygame.scrap',
   'C:\\Users\\ZaeWon\\AppData\\Local\\Programs\\Python\\Python36\\lib\\site-packages\\pygame\\scrap.cp36-win_amd64.pyd',
   'EXTENSION'),
  ('pygame.movie',
   'C:\\Users\\ZaeWon\\AppData\\Local\\Programs\\Python\\Python36\\lib\\site-packages\\pygame\\movie.cp36-win_amd64.pyd',
   'EXTENSION'),
  ('pygame.mixer',
   'C:\\Users\\ZaeWon\\AppData\\Local\\Programs\\Python\\Python36\\lib\\site-packages\\pygame\\mixer.cp36-win_amd64.pyd',
   'EXTENSION'),
  ('pygame.mixer_music',
   'C:\\Users\\ZaeWon\\AppData\\Local\\Programs\\Python\\Python36\\lib\\site-packages\\pygame\\mixer_music.cp36-win_amd64.pyd',
   'EXTENSION'),
  ('pygame.font',
   'C:\\Users\\ZaeWon\\AppData\\Local\\Programs\\Python\\Python36\\lib\\site-packages\\pygame\\font.cp36-win_amd64.pyd',
   'EXTENSION'),
  ('pygame._freetype',
   'C:\\Users\\ZaeWon\\AppData\\Local\\Programs\\Python\\Python36\\lib\\site-packages\\pygame\\_freetype.cp36-win_amd64.pyd',
   'EXTENSION'),
  ('pygame.transform',
   'C:\\Users\\ZaeWon\\AppData\\Local\\Programs\\Python\\Python36\\lib\\site-packages\\pygame\\transform.cp36-win_amd64.pyd',
   'EXTENSION'),
  ('pygame.time',
   'C:\\Users\\ZaeWon\\AppData\\Local\\Programs\\Python\\Python36\\lib\\site-packages\\pygame\\time.cp36-win_amd64.pyd',
   'EXTENSION'),
  ('pygame.overlay',
   'C:\\Users\\ZaeWon\\AppData\\Local\\Programs\\Python\\Python36\\lib\\site-packages\\pygame\\overlay.cp36-win_amd64.pyd',
   'EXTENSION'),
  ('pygame.pixelarray',
   'C:\\Users\\ZaeWon\\AppData\\Local\\Programs\\Python\\Python36\\lib\\site-packages\\pygame\\pixelarray.cp36-win_amd64.pyd',
   'EXTENSION'),
  ('pygame.mask',
   'C:\\Users\\ZaeWon\\AppData\\Local\\Programs\\Python\\Python36\\lib\\site-packages\\pygame\\mask.cp36-win_amd64.pyd',
   'EXTENSION'),
  ('pygame.surface',
   'C:\\Users\\ZaeWon\\AppData\\Local\\Programs\\Python\\Python36\\lib\\site-packages\\pygame\\surface.cp36-win_amd64.pyd',
   'EXTENSION'),
  ('pygame.pixelcopy',
   'C:\\Users\\ZaeWon\\AppData\\Local\\Programs\\Python\\Python36\\lib\\site-packages\\pygame\\pixelcopy.cp36-win_amd64.pyd',
   'EXTENSION'),
  ('pygame.mouse',
   'C:\\Users\\ZaeWon\\AppData\\Local\\Programs\\Python\\Python36\\lib\\site-packages\\pygame\\mouse.cp36-win_amd64.pyd',
   'EXTENSION'),
  ('pygame.key',
   'C:\\Users\\ZaeWon\\AppData\\Local\\Programs\\Python\\Python36\\lib\\site-packages\\pygame\\key.cp36-win_amd64.pyd',
   'EXTENSION'),
  ('pygame.joystick',
   'C:\\Users\\ZaeWon\\AppData\\Local\\Programs\\Python\\Python36\\lib\\site-packages\\pygame\\joystick.cp36-win_amd64.pyd',
   'EXTENSION'),
  ('pygame.image',
   'C:\\Users\\ZaeWon\\AppData\\Local\\Programs\\Python\\Python36\\lib\\site-packages\\pygame\\image.cp36-win_amd64.pyd',
   'EXTENSION'),
  ('pygame.event',
   'C:\\Users\\ZaeWon\\AppData\\Local\\Programs\\Python\\Python36\\lib\\site-packages\\pygame\\event.cp36-win_amd64.pyd',
   'EXTENSION'),
  ('pygame.draw',
   'C:\\Users\\ZaeWon\\AppData\\Local\\Programs\\Python\\Python36\\lib\\site-packages\\pygame\\draw.cp36-win_amd64.pyd',
   'EXTENSION'),
  ('pygame.display',
   'C:\\Users\\ZaeWon\\AppData\\Local\\Programs\\Python\\Python36\\lib\\site-packages\\pygame\\display.cp36-win_amd64.pyd',
   'EXTENSION'),
  ('pygame.cdrom',
   'C:\\Users\\ZaeWon\\AppData\\Local\\Programs\\Python\\Python36\\lib\\site-packages\\pygame\\cdrom.cp36-win_amd64.pyd',
   'EXTENSION'),
  ('pygame.math',
   'C:\\Users\\ZaeWon\\AppData\\Local\\Programs\\Python\\Python36\\lib\\site-packages\\pygame\\math.cp36-win_amd64.pyd',
   'EXTENSION'),
  ('pygame.bufferproxy',
   'C:\\Users\\ZaeWon\\AppData\\Local\\Programs\\Python\\Python36\\lib\\site-packages\\pygame\\bufferproxy.cp36-win_amd64.pyd',
   'EXTENSION'),
  ('pygame.color',
   'C:\\Users\\ZaeWon\\AppData\\Local\\Programs\\Python\\Python36\\lib\\site-packages\\pygame\\color.cp36-win_amd64.pyd',
   'EXTENSION'),
  ('pygame.surflock',
   'C:\\Users\\ZaeWon\\AppData\\Local\\Programs\\Python\\Python36\\lib\\site-packages\\pygame\\surflock.cp36-win_amd64.pyd',
   'EXTENSION'),
  ('pygame.rwobject',
   'C:\\Users\\ZaeWon\\AppData\\Local\\Programs\\Python\\Python36\\lib\\site-packages\\pygame\\rwobject.cp36-win_amd64.pyd',
   'EXTENSION'),
  ('pygame.rect',
   'C:\\Users\\ZaeWon\\AppData\\Local\\Programs\\Python\\Python36\\lib\\site-packages\\pygame\\rect.cp36-win_amd64.pyd',
   'EXTENSION'),
  ('pygame.constants',
   'C:\\Users\\ZaeWon\\AppData\\Local\\Programs\\Python\\Python36\\lib\\site-packages\\pygame\\constants.cp36-win_amd64.pyd',
   'EXTENSION'),
  ('pygame.base',
   'C:\\Users\\ZaeWon\\AppData\\Local\\Programs\\Python\\Python36\\lib\\site-packages\\pygame\\base.cp36-win_amd64.pyd',
   'EXTENSION'),
  ('api-ms-win-crt-utility-l1-1-0.dll',
   'C:\\Program Files\\TortoiseGit\\bin\\api-ms-win-crt-utility-l1-1-0.dll',
   'BINARY'),
  ('mfc140u.dll',
   'C:\\Users\\ZaeWon\\AppData\\Local\\Programs\\Python\\Python36\\lib\\site-packages\\Pythonwin\\mfc140u.dll',
   'BINARY'),
  ('SDL_image.dll',
   'C:\\Users\\ZaeWon\\AppData\\Local\\Programs\\Python\\Python36\\lib\\site-packages\\pygame\\SDL_image.dll',
   'BINARY'),
  ('SDL.dll',
   'C:\\Users\\ZaeWon\\AppData\\Local\\Programs\\Python\\Python36\\lib\\site-packages\\pygame\\SDL.dll',
   'BINARY'),
  ('smpeg.dll',
   'C:\\Users\\ZaeWon\\AppData\\Local\\Programs\\Python\\Python36\\lib\\site-packages\\pygame\\smpeg.dll',
   'BINARY'),
  ('SDL_mixer.dll',
   'C:\\Users\\ZaeWon\\AppData\\Local\\Programs\\Python\\Python36\\lib\\site-packages\\pygame\\SDL_mixer.dll',
   'BINARY'),
  ('SDL_ttf.dll',
   'C:\\Users\\ZaeWon\\AppData\\Local\\Programs\\Python\\Python36\\lib\\site-packages\\pygame\\SDL_ttf.dll',
   'BINARY'),
  ('api-ms-win-crt-multibyte-l1-1-0.dll',
   'C:\\Program Files\\TortoiseGit\\bin\\api-ms-win-crt-multibyte-l1-1-0.dll',
   'BINARY'),
  ('base_library.zip',
   'C:\\2DGP\\2017-2DGP\\Labs\\UntilMusicFinished\\build\\mygame\\base_library.zip',
   'DATA'),
  ('lib2to3\\PatternGrammar3.6.2.final.0.pickle',
   'C:\\Users\\ZaeWon\\AppData\\Local\\Programs\\Python\\Python36\\lib\\lib2to3\\PatternGrammar3.6.2.final.0.pickle',
   'DATA'),
  ('lib2to3\\Grammar3.6.3.candidate.1.pickle',
   'C:\\Users\\ZaeWon\\AppData\\Local\\Programs\\Python\\Python36\\lib\\lib2to3\\Grammar3.6.3.candidate.1.pickle',
   'DATA'),
  ('lib2to3\\PatternGrammar3.6.2.candidate.2.pickle',
   'C:\\Users\\ZaeWon\\AppData\\Local\\Programs\\Python\\Python36\\lib\\lib2to3\\PatternGrammar3.6.2.candidate.2.pickle',
   'DATA'),
  ('lib2to3\\PatternGrammar3.6.3.final.0.pickle',
   'C:\\Users\\ZaeWon\\AppData\\Local\\Programs\\Python\\Python36\\lib\\lib2to3\\PatternGrammar3.6.3.final.0.pickle',
   'DATA'),
  ('lib2to3\\PatternGrammar3.6.3.candidate.1.pickle',
   'C:\\Users\\ZaeWon\\AppData\\Local\\Programs\\Python\\Python36\\lib\\lib2to3\\PatternGrammar3.6.3.candidate.1.pickle',
   'DATA'),
  ('lib2to3\\Grammar3.6.2.final.0.pickle',
   'C:\\Users\\ZaeWon\\AppData\\Local\\Programs\\Python\\Python36\\lib\\lib2to3\\Grammar3.6.2.final.0.pickle',
   'DATA'),
  ('lib2to3\\Grammar.txt',
   'C:\\Users\\ZaeWon\\AppData\\Local\\Programs\\Python\\Python36\\lib\\lib2to3\\Grammar.txt',
   'DATA'),
  ('lib2to3\\Grammar3.6.3.final.0.pickle',
   'C:\\Users\\ZaeWon\\AppData\\Local\\Programs\\Python\\Python36\\lib\\lib2to3\\Grammar3.6.3.final.0.pickle',
   'DATA'),
  ('Include\\pyconfig.h',
   'C:\\Users\\ZaeWon\\AppData\\Local\\Programs\\Python\\Python36\\Include\\pyconfig.h',
   'DATA'),
  ('lib2to3\\PatternGrammar.txt',
   'C:\\Users\\ZaeWon\\AppData\\Local\\Programs\\Python\\Python36\\lib\\lib2to3\\PatternGrammar.txt',
   'DATA'),
  ('lib2to3\\Grammar3.6.2.candidate.2.pickle',
   'C:\\Users\\ZaeWon\\AppData\\Local\\Programs\\Python\\Python36\\lib\\lib2to3\\Grammar3.6.2.candidate.2.pickle',
   'DATA'),
  ('lib2to3\\tests\\data\\README',
   'C:\\Users\\ZaeWon\\AppData\\Local\\Programs\\Python\\Python36\\lib\\lib2to3\\tests\\data\\README',
   'DATA'),
  ('mygame.exe.manifest',
   'C:\\2DGP\\2017-2DGP\\Labs\\UntilMusicFinished\\build\\mygame\\mygame.exe.manifest',
   'BINARY'),
  ('pyi-windows-manifest-filename mygame.exe.manifest', '', 'OPTION')],
 False,
 False,
 False)
