('C:\\2DGP\\2017-2DGP\\Labs\\UntilMusicFinished\\build\\mygame\\out00-PYZ.pyz',
 [('multiprocessing.popen_fork',
   'C:\\Users\\ZaeWon\\AppData\\Local\\Programs\\Python\\Python36\\lib\\multiprocessing\\popen_fork.py',
   'PYMODULE'),
  ('multiprocessing.connection',
   'C:\\Users\\ZaeWon\\AppData\\Local\\Programs\\Python\\Python36\\lib\\multiprocessing\\connection.py',
   'PYMODULE'),
  ('multiprocessing.resource_sharer',
   'C:\\Users\\ZaeWon\\AppData\\Local\\Programs\\Python\\Python36\\lib\\multiprocessing\\resource_sharer.py',
   'PYMODULE'),
  ('multiprocessing.process',
   'C:\\Users\\ZaeWon\\AppData\\Local\\Programs\\Python\\Python36\\lib\\multiprocessing\\process.py',
   'PYMODULE'),
  ('xmlrpc.client',
   'C:\\Users\\ZaeWon\\AppData\\Local\\Programs\\Python\\Python36\\lib\\xmlrpc\\client.py',
   'PYMODULE'),
  ('xmlrpc',
   'C:\\Users\\ZaeWon\\AppData\\Local\\Programs\\Python\\Python36\\lib\\xmlrpc\\__init__.py',
   'PYMODULE'),
  ('decimal',
   'C:\\Users\\ZaeWon\\AppData\\Local\\Programs\\Python\\Python36\\lib\\decimal.py',
   'PYMODULE'),
  ('_pydecimal',
   'C:\\Users\\ZaeWon\\AppData\\Local\\Programs\\Python\\Python36\\lib\\_pydecimal.py',
   'PYMODULE'),
  ('numbers',
   'C:\\Users\\ZaeWon\\AppData\\Local\\Programs\\Python\\Python36\\lib\\numbers.py',
   'PYMODULE'),
  ('hmac',
   'C:\\Users\\ZaeWon\\AppData\\Local\\Programs\\Python\\Python36\\lib\\hmac.py',
   'PYMODULE'),
  ('multiprocessing.context',
   'C:\\Users\\ZaeWon\\AppData\\Local\\Programs\\Python\\Python36\\lib\\multiprocessing\\context.py',
   'PYMODULE'),
  ('multiprocessing.popen_forkserver',
   'C:\\Users\\ZaeWon\\AppData\\Local\\Programs\\Python\\Python36\\lib\\multiprocessing\\popen_forkserver.py',
   'PYMODULE'),
  ('multiprocessing.popen_spawn_posix',
   'C:\\Users\\ZaeWon\\AppData\\Local\\Programs\\Python\\Python36\\lib\\multiprocessing\\popen_spawn_posix.py',
   'PYMODULE'),
  ('multiprocessing.semaphore_tracker',
   'C:\\Users\\ZaeWon\\AppData\\Local\\Programs\\Python\\Python36\\lib\\multiprocessing\\semaphore_tracker.py',
   'PYMODULE'),
  ('multiprocessing.forkserver',
   'C:\\Users\\ZaeWon\\AppData\\Local\\Programs\\Python\\Python36\\lib\\multiprocessing\\forkserver.py',
   'PYMODULE'),
  ('multiprocessing.sharedctypes',
   'C:\\Users\\ZaeWon\\AppData\\Local\\Programs\\Python\\Python36\\lib\\multiprocessing\\sharedctypes.py',
   'PYMODULE'),
  ('multiprocessing.heap',
   'C:\\Users\\ZaeWon\\AppData\\Local\\Programs\\Python\\Python36\\lib\\multiprocessing\\heap.py',
   'PYMODULE'),
  ('ctypes',
   'C:\\Users\\ZaeWon\\AppData\\Local\\Programs\\Python\\Python36\\lib\\ctypes\\__init__.py',
   'PYMODULE'),
  ('ctypes._endian',
   'C:\\Users\\ZaeWon\\AppData\\Local\\Programs\\Python\\Python36\\lib\\ctypes\\_endian.py',
   'PYMODULE'),
  ('multiprocessing.pool',
   'C:\\Users\\ZaeWon\\AppData\\Local\\Programs\\Python\\Python36\\lib\\multiprocessing\\pool.py',
   'PYMODULE'),
  ('multiprocessing.dummy',
   'C:\\Users\\ZaeWon\\AppData\\Local\\Programs\\Python\\Python36\\lib\\multiprocessing\\dummy\\__init__.py',
   'PYMODULE'),
  ('multiprocessing.dummy.connection',
   'C:\\Users\\ZaeWon\\AppData\\Local\\Programs\\Python\\Python36\\lib\\multiprocessing\\dummy\\connection.py',
   'PYMODULE'),
  ('queue',
   'C:\\Users\\ZaeWon\\AppData\\Local\\Programs\\Python\\Python36\\lib\\queue.py',
   'PYMODULE'),
  ('multiprocessing.queues',
   'C:\\Users\\ZaeWon\\AppData\\Local\\Programs\\Python\\Python36\\lib\\multiprocessing\\queues.py',
   'PYMODULE'),
  ('multiprocessing.synchronize',
   'C:\\Users\\ZaeWon\\AppData\\Local\\Programs\\Python\\Python36\\lib\\multiprocessing\\synchronize.py',
   'PYMODULE'),
  ('multiprocessing.managers',
   'C:\\Users\\ZaeWon\\AppData\\Local\\Programs\\Python\\Python36\\lib\\multiprocessing\\managers.py',
   'PYMODULE'),
  ('multiprocessing.reduction',
   'C:\\Users\\ZaeWon\\AppData\\Local\\Programs\\Python\\Python36\\lib\\multiprocessing\\reduction.py',
   'PYMODULE'),
  ('multiprocessing.util',
   'C:\\Users\\ZaeWon\\AppData\\Local\\Programs\\Python\\Python36\\lib\\multiprocessing\\util.py',
   'PYMODULE'),
  ('multiprocessing.popen_spawn_win32',
   'C:\\Users\\ZaeWon\\AppData\\Local\\Programs\\Python\\Python36\\lib\\multiprocessing\\popen_spawn_win32.py',
   'PYMODULE'),
  ('multiprocessing.spawn',
   'C:\\Users\\ZaeWon\\AppData\\Local\\Programs\\Python\\Python36\\lib\\multiprocessing\\spawn.py',
   'PYMODULE'),
  ('runpy',
   'C:\\Users\\ZaeWon\\AppData\\Local\\Programs\\Python\\Python36\\lib\\runpy.py',
   'PYMODULE'),
  ('multiprocessing',
   'C:\\Users\\ZaeWon\\AppData\\Local\\Programs\\Python\\Python36\\lib\\multiprocessing\\__init__.py',
   'PYMODULE'),
  ('win32com',
   'C:\\Users\\ZaeWon\\AppData\\Local\\Programs\\Python\\Python36\\lib\\site-packages\\win32com\\__init__.py',
   'PYMODULE'),
  ('win32com.server.util',
   'C:\\Users\\ZaeWon\\AppData\\Local\\Programs\\Python\\Python36\\lib\\site-packages\\win32com\\server\\util.py',
   'PYMODULE'),
  ('win32com.server.dispatcher',
   'C:\\Users\\ZaeWon\\AppData\\Local\\Programs\\Python\\Python36\\lib\\site-packages\\win32com\\server\\dispatcher.py',
   'PYMODULE'),
  ('win32traceutil',
   'C:\\Users\\ZaeWon\\AppData\\Local\\Programs\\Python\\Python36\\lib\\site-packages\\win32\\lib\\win32traceutil.py',
   'PYMODULE'),
  ('win32com.util',
   'C:\\Users\\ZaeWon\\AppData\\Local\\Programs\\Python\\Python36\\lib\\site-packages\\win32com\\util.py',
   'PYMODULE'),
  ('win32con',
   'C:\\Users\\ZaeWon\\AppData\\Local\\Programs\\Python\\Python36\\lib\\site-packages\\win32\\lib\\win32con.py',
   'PYMODULE'),
  ('win32com.server.exception',
   'C:\\Users\\ZaeWon\\AppData\\Local\\Programs\\Python\\Python36\\lib\\site-packages\\win32com\\server\\exception.py',
   'PYMODULE'),
  ('winerror',
   'C:\\Users\\ZaeWon\\AppData\\Local\\Programs\\Python\\Python36\\lib\\site-packages\\win32\\lib\\winerror.py',
   'PYMODULE'),
  ('win32com.server.policy',
   'C:\\Users\\ZaeWon\\AppData\\Local\\Programs\\Python\\Python36\\lib\\site-packages\\win32com\\server\\policy.py',
   'PYMODULE'),
  ('win32com.client',
   'C:\\Users\\ZaeWon\\AppData\\Local\\Programs\\Python\\Python36\\lib\\site-packages\\win32com\\client\\__init__.py',
   'PYMODULE'),
  ('win32com.client.makepy',
   'C:\\Users\\ZaeWon\\AppData\\Local\\Programs\\Python\\Python36\\lib\\site-packages\\win32com\\client\\makepy.py',
   'PYMODULE'),
  ('pywin.dialogs.status',
   'C:\\Users\\ZaeWon\\AppData\\Local\\Programs\\Python\\Python36\\lib\\site-packages\\Pythonwin\\pywin\\dialogs\\status.py',
   'PYMODULE'),
  ('pywin.mfc.thread',
   'C:\\Users\\ZaeWon\\AppData\\Local\\Programs\\Python\\Python36\\lib\\site-packages\\Pythonwin\\pywin\\mfc\\thread.py',
   'PYMODULE'),
  ('pywin.mfc.object',
   'C:\\Users\\ZaeWon\\AppData\\Local\\Programs\\Python\\Python36\\lib\\site-packages\\Pythonwin\\pywin\\mfc\\object.py',
   'PYMODULE'),
  ('pywin.mfc.dialog',
   'C:\\Users\\ZaeWon\\AppData\\Local\\Programs\\Python\\Python36\\lib\\site-packages\\Pythonwin\\pywin\\mfc\\dialog.py',
   'PYMODULE'),
  ('pywin.mfc.window',
   'C:\\Users\\ZaeWon\\AppData\\Local\\Programs\\Python\\Python36\\lib\\site-packages\\Pythonwin\\pywin\\mfc\\window.py',
   'PYMODULE'),
  ('pywin.mfc',
   'C:\\Users\\ZaeWon\\AppData\\Local\\Programs\\Python\\Python36\\lib\\site-packages\\Pythonwin\\pywin\\mfc\\__init__.py',
   'PYMODULE'),
  ('pywin.dialogs',
   'C:\\Users\\ZaeWon\\AppData\\Local\\Programs\\Python\\Python36\\lib\\site-packages\\Pythonwin\\pywin\\dialogs\\__init__.py',
   'PYMODULE'),
  ('pywin',
   'C:\\Users\\ZaeWon\\AppData\\Local\\Programs\\Python\\Python36\\lib\\site-packages\\Pythonwin\\pywin\\__init__.py',
   'PYMODULE'),
  ('win32com.client.gencache',
   'C:\\Users\\ZaeWon\\AppData\\Local\\Programs\\Python\\Python36\\lib\\site-packages\\win32com\\client\\gencache.py',
   'PYMODULE'),
  ('win32com.client.selecttlb',
   'C:\\Users\\ZaeWon\\AppData\\Local\\Programs\\Python\\Python36\\lib\\site-packages\\win32com\\client\\selecttlb.py',
   'PYMODULE'),
  ('pywin.dialogs.list',
   'C:\\Users\\ZaeWon\\AppData\\Local\\Programs\\Python\\Python36\\lib\\site-packages\\Pythonwin\\pywin\\dialogs\\list.py',
   'PYMODULE'),
  ('commctrl',
   'C:\\Users\\ZaeWon\\AppData\\Local\\Programs\\Python\\Python36\\lib\\site-packages\\win32\\lib\\commctrl.py',
   'PYMODULE'),
  ('win32com.client.genpy',
   'C:\\Users\\ZaeWon\\AppData\\Local\\Programs\\Python\\Python36\\lib\\site-packages\\win32com\\client\\genpy.py',
   'PYMODULE'),
  ('win32com.client.CLSIDToClass',
   'C:\\Users\\ZaeWon\\AppData\\Local\\Programs\\Python\\Python36\\lib\\site-packages\\win32com\\client\\CLSIDToClass.py',
   'PYMODULE'),
  ('win32com.client.dynamic',
   'C:\\Users\\ZaeWon\\AppData\\Local\\Programs\\Python\\Python36\\lib\\site-packages\\win32com\\client\\dynamic.py',
   'PYMODULE'),
  ('win32com.client.build',
   'C:\\Users\\ZaeWon\\AppData\\Local\\Programs\\Python\\Python36\\lib\\site-packages\\win32com\\client\\build.py',
   'PYMODULE'),
  ('pywintypes',
   'C:\\Users\\ZaeWon\\AppData\\Local\\Programs\\Python\\Python36\\lib\\site-packages\\win32\\lib\\pywintypes.py',
   'PYMODULE'),
  ('win32com.server',
   'C:\\Users\\ZaeWon\\AppData\\Local\\Programs\\Python\\Python36\\lib\\site-packages\\win32com\\server\\__init__.py',
   'PYMODULE'),
  ('win32com.universal',
   'C:\\Users\\ZaeWon\\AppData\\Local\\Programs\\Python\\Python36\\lib\\site-packages\\win32com\\universal.py',
   'PYMODULE'),
  ('win32com.client.util',
   'C:\\Users\\ZaeWon\\AppData\\Local\\Programs\\Python\\Python36\\lib\\site-packages\\win32com\\client\\util.py',
   'PYMODULE'),
  ('imp',
   'C:\\Users\\ZaeWon\\AppData\\Local\\Programs\\Python\\Python36\\lib\\imp.py',
   'PYMODULE'),
  ('pythoncom',
   'C:\\Users\\ZaeWon\\AppData\\Local\\Programs\\Python\\Python36\\lib\\site-packages\\pythoncom.py',
   'PYMODULE'),
  ('pkg_resources',
   'C:\\Users\\ZaeWon\\AppData\\Local\\Programs\\Python\\Python36\\lib\\site-packages\\pkg_resources\\__init__.py',
   'PYMODULE'),
  ('pkg_resources._vendor.appdirs',
   'C:\\Users\\ZaeWon\\AppData\\Local\\Programs\\Python\\Python36\\lib\\site-packages\\pkg_resources\\_vendor\\appdirs.py',
   'PYMODULE'),
  ('win32com.shell.shellcon',
   'C:\\Users\\ZaeWon\\AppData\\Local\\Programs\\Python\\Python36\\lib\\site-packages\\win32comext\\shell\\shellcon.py',
   'PYMODULE'),
  ('win32com.shell',
   'C:\\Users\\ZaeWon\\AppData\\Local\\Programs\\Python\\Python36\\lib\\site-packages\\win32comext\\shell\\__init__.py',
   'PYMODULE'),
  ('pkg_resources._vendor.packaging',
   'C:\\Users\\ZaeWon\\AppData\\Local\\Programs\\Python\\Python36\\lib\\site-packages\\pkg_resources\\_vendor\\packaging\\__init__.py',
   'PYMODULE'),
  ('pkg_resources._vendor.packaging.markers',
   'C:\\Users\\ZaeWon\\AppData\\Local\\Programs\\Python\\Python36\\lib\\site-packages\\pkg_resources\\_vendor\\packaging\\markers.py',
   'PYMODULE'),
  ('pkg_resources._vendor.packaging._compat',
   'C:\\Users\\ZaeWon\\AppData\\Local\\Programs\\Python\\Python36\\lib\\site-packages\\pkg_resources\\_vendor\\packaging\\_compat.py',
   'PYMODULE'),
  ('pkg_resources._vendor.pyparsing',
   'C:\\Users\\ZaeWon\\AppData\\Local\\Programs\\Python\\Python36\\lib\\site-packages\\pkg_resources\\_vendor\\pyparsing.py',
   'PYMODULE'),
  ('uuid',
   'C:\\Users\\ZaeWon\\AppData\\Local\\Programs\\Python\\Python36\\lib\\uuid.py',
   'PYMODULE'),
  ('ctypes.util',
   'C:\\Users\\ZaeWon\\AppData\\Local\\Programs\\Python\\Python36\\lib\\ctypes\\util.py',
   'PYMODULE'),
  ('ctypes.macholib.dyld',
   'C:\\Users\\ZaeWon\\AppData\\Local\\Programs\\Python\\Python36\\lib\\ctypes\\macholib\\dyld.py',
   'PYMODULE'),
  ('ctypes.macholib',
   'C:\\Users\\ZaeWon\\AppData\\Local\\Programs\\Python\\Python36\\lib\\ctypes\\macholib\\__init__.py',
   'PYMODULE'),
  ('ctypes.macholib.dylib',
   'C:\\Users\\ZaeWon\\AppData\\Local\\Programs\\Python\\Python36\\lib\\ctypes\\macholib\\dylib.py',
   'PYMODULE'),
  ('ctypes.macholib.framework',
   'C:\\Users\\ZaeWon\\AppData\\Local\\Programs\\Python\\Python36\\lib\\ctypes\\macholib\\framework.py',
   'PYMODULE'),
  ('netbios',
   'C:\\Users\\ZaeWon\\AppData\\Local\\Programs\\Python\\Python36\\lib\\site-packages\\win32\\lib\\netbios.py',
   'PYMODULE'),
  ('pkg_resources._vendor.packaging._structures',
   'C:\\Users\\ZaeWon\\AppData\\Local\\Programs\\Python\\Python36\\lib\\site-packages\\pkg_resources\\_vendor\\packaging\\_structures.py',
   'PYMODULE'),
  ('pkg_resources._vendor.packaging.__about__',
   'C:\\Users\\ZaeWon\\AppData\\Local\\Programs\\Python\\Python36\\lib\\site-packages\\pkg_resources\\_vendor\\packaging\\__about__.py',
   'PYMODULE'),
  ('pkg_resources._vendor',
   'C:\\Users\\ZaeWon\\AppData\\Local\\Programs\\Python\\Python36\\lib\\site-packages\\pkg_resources\\_vendor\\__init__.py',
   'PYMODULE'),
  ('pkg_resources._vendor.packaging.requirements',
   'C:\\Users\\ZaeWon\\AppData\\Local\\Programs\\Python\\Python36\\lib\\site-packages\\pkg_resources\\_vendor\\packaging\\requirements.py',
   'PYMODULE'),
  ('pkg_resources._vendor.six',
   'C:\\Users\\ZaeWon\\AppData\\Local\\Programs\\Python\\Python36\\lib\\site-packages\\pkg_resources\\_vendor\\six.py',
   'PYMODULE'),
  ('pkg_resources._vendor.packaging.version',
   'C:\\Users\\ZaeWon\\AppData\\Local\\Programs\\Python\\Python36\\lib\\site-packages\\pkg_resources\\_vendor\\packaging\\version.py',
   'PYMODULE'),
  ('pkg_resources._vendor.packaging.utils',
   'C:\\Users\\ZaeWon\\AppData\\Local\\Programs\\Python\\Python36\\lib\\site-packages\\pkg_resources\\_vendor\\packaging\\utils.py',
   'PYMODULE'),
  ('pkg_resources._vendor.packaging.specifiers',
   'C:\\Users\\ZaeWon\\AppData\\Local\\Programs\\Python\\Python36\\lib\\site-packages\\pkg_resources\\_vendor\\packaging\\specifiers.py',
   'PYMODULE'),
  ('distutils.util',
   'C:\\Users\\ZaeWon\\AppData\\Local\\Programs\\Python\\Python36\\lib\\distutils\\util.py',
   'PYMODULE'),
  ('distutils.filelist',
   'C:\\Users\\ZaeWon\\AppData\\Local\\Programs\\Python\\Python36\\lib\\distutils\\filelist.py',
   'PYMODULE'),
  ('distutils.debug',
   'C:\\Users\\ZaeWon\\AppData\\Local\\Programs\\Python\\Python36\\lib\\distutils\\debug.py',
   'PYMODULE'),
  ('distutils.file_util',
   'C:\\Users\\ZaeWon\\AppData\\Local\\Programs\\Python\\Python36\\lib\\distutils\\file_util.py',
   'PYMODULE'),
  ('distutils.dir_util',
   'C:\\Users\\ZaeWon\\AppData\\Local\\Programs\\Python\\Python36\\lib\\distutils\\dir_util.py',
   'PYMODULE'),
  ('lib2to3.refactor',
   'C:\\Users\\ZaeWon\\AppData\\Local\\Programs\\Python\\Python36\\lib\\lib2to3\\refactor.py',
   'PYMODULE'),
  ('lib2to3.btm_matcher',
   'C:\\Users\\ZaeWon\\AppData\\Local\\Programs\\Python\\Python36\\lib\\lib2to3\\btm_matcher.py',
   'PYMODULE'),
  ('lib2to3.btm_utils',
   'C:\\Users\\ZaeWon\\AppData\\Local\\Programs\\Python\\Python36\\lib\\lib2to3\\btm_utils.py',
   'PYMODULE'),
  ('lib2to3.pgen2.grammar',
   'C:\\Users\\ZaeWon\\AppData\\Local\\Programs\\Python\\Python36\\lib\\lib2to3\\pgen2\\grammar.py',
   'PYMODULE'),
  ('lib2to3.pygram',
   'C:\\Users\\ZaeWon\\AppData\\Local\\Programs\\Python\\Python36\\lib\\lib2to3\\pygram.py',
   'PYMODULE'),
  ('lib2to3.pytree',
   'C:\\Users\\ZaeWon\\AppData\\Local\\Programs\\Python\\Python36\\lib\\lib2to3\\pytree.py',
   'PYMODULE'),
  ('lib2to3',
   'C:\\Users\\ZaeWon\\AppData\\Local\\Programs\\Python\\Python36\\lib\\lib2to3\\__init__.py',
   'PYMODULE'),
  ('lib2to3.patcomp',
   'C:\\Users\\ZaeWon\\AppData\\Local\\Programs\\Python\\Python36\\lib\\lib2to3\\patcomp.py',
   'PYMODULE'),
  ('lib2to3.pgen2.parse',
   'C:\\Users\\ZaeWon\\AppData\\Local\\Programs\\Python\\Python36\\lib\\lib2to3\\pgen2\\parse.py',
   'PYMODULE'),
  ('lib2to3.pgen2.literals',
   'C:\\Users\\ZaeWon\\AppData\\Local\\Programs\\Python\\Python36\\lib\\lib2to3\\pgen2\\literals.py',
   'PYMODULE'),
  ('lib2to3.fixer_util',
   'C:\\Users\\ZaeWon\\AppData\\Local\\Programs\\Python\\Python36\\lib\\lib2to3\\fixer_util.py',
   'PYMODULE'),
  ('lib2to3.pgen2.token',
   'C:\\Users\\ZaeWon\\AppData\\Local\\Programs\\Python\\Python36\\lib\\lib2to3\\pgen2\\token.py',
   'PYMODULE'),
  ('lib2to3.pgen2.tokenize',
   'C:\\Users\\ZaeWon\\AppData\\Local\\Programs\\Python\\Python36\\lib\\lib2to3\\pgen2\\tokenize.py',
   'PYMODULE'),
  ('lib2to3.pgen2.driver',
   'C:\\Users\\ZaeWon\\AppData\\Local\\Programs\\Python\\Python36\\lib\\lib2to3\\pgen2\\driver.py',
   'PYMODULE'),
  ('lib2to3.pgen2.pgen',
   'C:\\Users\\ZaeWon\\AppData\\Local\\Programs\\Python\\Python36\\lib\\lib2to3\\pgen2\\pgen.py',
   'PYMODULE'),
  ('lib2to3.pgen2',
   'C:\\Users\\ZaeWon\\AppData\\Local\\Programs\\Python\\Python36\\lib\\lib2to3\\pgen2\\__init__.py',
   'PYMODULE'),
  ('distutils.sysconfig',
   'C:\\Users\\ZaeWon\\AppData\\Local\\Programs\\Python\\Python36\\lib\\distutils\\sysconfig.py',
   'PYMODULE'),
  ('distutils.text_file',
   'C:\\Users\\ZaeWon\\AppData\\Local\\Programs\\Python\\Python36\\lib\\distutils\\text_file.py',
   'PYMODULE'),
  ('_osx_support',
   'C:\\Users\\ZaeWon\\AppData\\Local\\Programs\\Python\\Python36\\lib\\_osx_support.py',
   'PYMODULE'),
  ('distutils.log',
   'C:\\Users\\ZaeWon\\AppData\\Local\\Programs\\Python\\Python36\\lib\\distutils\\log.py',
   'PYMODULE'),
  ('distutils',
   'C:\\Users\\ZaeWon\\AppData\\Local\\Programs\\Python\\Python36\\lib\\distutils\\__init__.py',
   'PYMODULE'),
  ('distutils.spawn',
   'C:\\Users\\ZaeWon\\AppData\\Local\\Programs\\Python\\Python36\\lib\\distutils\\spawn.py',
   'PYMODULE'),
  ('distutils.dep_util',
   'C:\\Users\\ZaeWon\\AppData\\Local\\Programs\\Python\\Python36\\lib\\distutils\\dep_util.py',
   'PYMODULE'),
  ('distutils.errors',
   'C:\\Users\\ZaeWon\\AppData\\Local\\Programs\\Python\\Python36\\lib\\distutils\\errors.py',
   'PYMODULE'),
  ('sysconfig',
   'C:\\Users\\ZaeWon\\AppData\\Local\\Programs\\Python\\Python36\\lib\\sysconfig.py',
   'PYMODULE'),
  ('pkg_resources.extern',
   'C:\\Users\\ZaeWon\\AppData\\Local\\Programs\\Python\\Python36\\lib\\site-packages\\pkg_resources\\extern\\__init__.py',
   'PYMODULE'),
  ('_strptime',
   'C:\\Users\\ZaeWon\\AppData\\Local\\Programs\\Python\\Python36\\lib\\_strptime.py',
   'PYMODULE'),
  ('datetime',
   'C:\\Users\\ZaeWon\\AppData\\Local\\Programs\\Python\\Python36\\lib\\datetime.py',
   'PYMODULE'),
  ('ntpath',
   'C:\\Users\\ZaeWon\\AppData\\Local\\Programs\\Python\\Python36\\lib\\ntpath.py',
   'PYMODULE'),
  ('stringprep',
   'C:\\Users\\ZaeWon\\AppData\\Local\\Programs\\Python\\Python36\\lib\\stringprep.py',
   'PYMODULE'),
  ('stat',
   'C:\\Users\\ZaeWon\\AppData\\Local\\Programs\\Python\\Python36\\lib\\stat.py',
   'PYMODULE'),
  ('genericpath',
   'C:\\Users\\ZaeWon\\AppData\\Local\\Programs\\Python\\Python36\\lib\\genericpath.py',
   'PYMODULE'),
  ('posixpath',
   'C:\\Users\\ZaeWon\\AppData\\Local\\Programs\\Python\\Python36\\lib\\posixpath.py',
   'PYMODULE'),
  ('fnmatch',
   'C:\\Users\\ZaeWon\\AppData\\Local\\Programs\\Python\\Python36\\lib\\fnmatch.py',
   'PYMODULE'),
  ('_compat_pickle',
   'C:\\Users\\ZaeWon\\AppData\\Local\\Programs\\Python\\Python36\\lib\\_compat_pickle.py',
   'PYMODULE'),
  ('__future__',
   'C:\\Users\\ZaeWon\\AppData\\Local\\Programs\\Python\\Python36\\lib\\__future__.py',
   'PYMODULE'),
  ('difflib',
   'C:\\Users\\ZaeWon\\AppData\\Local\\Programs\\Python\\Python36\\lib\\difflib.py',
   'PYMODULE'),
  ('ast',
   'C:\\Users\\ZaeWon\\AppData\\Local\\Programs\\Python\\Python36\\lib\\ast.py',
   'PYMODULE'),
  ('inspect',
   'C:\\Users\\ZaeWon\\AppData\\Local\\Programs\\Python\\Python36\\lib\\inspect.py',
   'PYMODULE'),
  ('cmd',
   'C:\\Users\\ZaeWon\\AppData\\Local\\Programs\\Python\\Python36\\lib\\cmd.py',
   'PYMODULE'),
  ('bdb',
   'C:\\Users\\ZaeWon\\AppData\\Local\\Programs\\Python\\Python36\\lib\\bdb.py',
   'PYMODULE'),
  ('opcode',
   'C:\\Users\\ZaeWon\\AppData\\Local\\Programs\\Python\\Python36\\lib\\opcode.py',
   'PYMODULE'),
  ('dis',
   'C:\\Users\\ZaeWon\\AppData\\Local\\Programs\\Python\\Python36\\lib\\dis.py',
   'PYMODULE'),
  ('codeop',
   'C:\\Users\\ZaeWon\\AppData\\Local\\Programs\\Python\\Python36\\lib\\codeop.py',
   'PYMODULE'),
  ('code',
   'C:\\Users\\ZaeWon\\AppData\\Local\\Programs\\Python\\Python36\\lib\\code.py',
   'PYMODULE'),
  ('glob',
   'C:\\Users\\ZaeWon\\AppData\\Local\\Programs\\Python\\Python36\\lib\\glob.py',
   'PYMODULE'),
  ('shlex',
   'C:\\Users\\ZaeWon\\AppData\\Local\\Programs\\Python\\Python36\\lib\\shlex.py',
   'PYMODULE'),
  ('importlib._bootstrap',
   'C:\\Users\\ZaeWon\\AppData\\Local\\Programs\\Python\\Python36\\lib\\importlib\\_bootstrap.py',
   'PYMODULE'),
  ('importlib._bootstrap_external',
   'C:\\Users\\ZaeWon\\AppData\\Local\\Programs\\Python\\Python36\\lib\\importlib\\_bootstrap_external.py',
   'PYMODULE'),
  ('importlib.machinery',
   'C:\\Users\\ZaeWon\\AppData\\Local\\Programs\\Python\\Python36\\lib\\importlib\\machinery.py',
   'PYMODULE'),
  ('importlib.util',
   'C:\\Users\\ZaeWon\\AppData\\Local\\Programs\\Python\\Python36\\lib\\importlib\\util.py',
   'PYMODULE'),
  ('importlib.abc',
   'C:\\Users\\ZaeWon\\AppData\\Local\\Programs\\Python\\Python36\\lib\\importlib\\abc.py',
   'PYMODULE'),
  ('importlib',
   'C:\\Users\\ZaeWon\\AppData\\Local\\Programs\\Python\\Python36\\lib\\importlib\\__init__.py',
   'PYMODULE'),
  ('pkgutil',
   'C:\\Users\\ZaeWon\\AppData\\Local\\Programs\\Python\\Python36\\lib\\pkgutil.py',
   'PYMODULE'),
  ('xml',
   'C:\\Users\\ZaeWon\\AppData\\Local\\Programs\\Python\\Python36\\lib\\xml\\__init__.py',
   'PYMODULE'),
  ('xml.sax.expatreader',
   'C:\\Users\\ZaeWon\\AppData\\Local\\Programs\\Python\\Python36\\lib\\xml\\sax\\expatreader.py',
   'PYMODULE'),
  ('xml.sax.saxutils',
   'C:\\Users\\ZaeWon\\AppData\\Local\\Programs\\Python\\Python36\\lib\\xml\\sax\\saxutils.py',
   'PYMODULE'),
  ('urllib.request',
   'C:\\Users\\ZaeWon\\AppData\\Local\\Programs\\Python\\Python36\\lib\\urllib\\request.py',
   'PYMODULE'),
  ('getpass',
   'C:\\Users\\ZaeWon\\AppData\\Local\\Programs\\Python\\Python36\\lib\\getpass.py',
   'PYMODULE'),
  ('nturl2path',
   'C:\\Users\\ZaeWon\\AppData\\Local\\Programs\\Python\\Python36\\lib\\nturl2path.py',
   'PYMODULE'),
  ('ftplib',
   'C:\\Users\\ZaeWon\\AppData\\Local\\Programs\\Python\\Python36\\lib\\ftplib.py',
   'PYMODULE'),
  ('netrc',
   'C:\\Users\\ZaeWon\\AppData\\Local\\Programs\\Python\\Python36\\lib\\netrc.py',
   'PYMODULE'),
  ('http.cookiejar',
   'C:\\Users\\ZaeWon\\AppData\\Local\\Programs\\Python\\Python36\\lib\\http\\cookiejar.py',
   'PYMODULE'),
  ('urllib.response',
   'C:\\Users\\ZaeWon\\AppData\\Local\\Programs\\Python\\Python36\\lib\\urllib\\response.py',
   'PYMODULE'),
  ('urllib.error',
   'C:\\Users\\ZaeWon\\AppData\\Local\\Programs\\Python\\Python36\\lib\\urllib\\error.py',
   'PYMODULE'),
  ('xml.sax',
   'C:\\Users\\ZaeWon\\AppData\\Local\\Programs\\Python\\Python36\\lib\\xml\\sax\\__init__.py',
   'PYMODULE'),
  ('xml.sax.handler',
   'C:\\Users\\ZaeWon\\AppData\\Local\\Programs\\Python\\Python36\\lib\\xml\\sax\\handler.py',
   'PYMODULE'),
  ('xml.sax._exceptions',
   'C:\\Users\\ZaeWon\\AppData\\Local\\Programs\\Python\\Python36\\lib\\xml\\sax\\_exceptions.py',
   'PYMODULE'),
  ('xml.sax.xmlreader',
   'C:\\Users\\ZaeWon\\AppData\\Local\\Programs\\Python\\Python36\\lib\\xml\\sax\\xmlreader.py',
   'PYMODULE'),
  ('xml.parsers',
   'C:\\Users\\ZaeWon\\AppData\\Local\\Programs\\Python\\Python36\\lib\\xml\\parsers\\__init__.py',
   'PYMODULE'),
  ('xml.parsers.expat',
   'C:\\Users\\ZaeWon\\AppData\\Local\\Programs\\Python\\Python36\\lib\\xml\\parsers\\expat.py',
   'PYMODULE'),
  ('plistlib',
   'C:\\Users\\ZaeWon\\AppData\\Local\\Programs\\Python\\Python36\\lib\\plistlib.py',
   'PYMODULE'),
  ('urllib.parse',
   'C:\\Users\\ZaeWon\\AppData\\Local\\Programs\\Python\\Python36\\lib\\urllib\\parse.py',
   'PYMODULE'),
  ('tempfile',
   'C:\\Users\\ZaeWon\\AppData\\Local\\Programs\\Python\\Python36\\lib\\tempfile.py',
   'PYMODULE'),
  ('tty',
   'C:\\Users\\ZaeWon\\AppData\\Local\\Programs\\Python\\Python36\\lib\\tty.py',
   'PYMODULE'),
  ('pydoc_data',
   'C:\\Users\\ZaeWon\\AppData\\Local\\Programs\\Python\\Python36\\lib\\pydoc_data\\__init__.py',
   'PYMODULE'),
  ('pydoc_data.topics',
   'C:\\Users\\ZaeWon\\AppData\\Local\\Programs\\Python\\Python36\\lib\\pydoc_data\\topics.py',
   'PYMODULE'),
  ('html.entities',
   'C:\\Users\\ZaeWon\\AppData\\Local\\Programs\\Python\\Python36\\lib\\html\\entities.py',
   'PYMODULE'),
  ('html',
   'C:\\Users\\ZaeWon\\AppData\\Local\\Programs\\Python\\Python36\\lib\\html\\__init__.py',
   'PYMODULE'),
  ('ipaddress',
   'C:\\Users\\ZaeWon\\AppData\\Local\\Programs\\Python\\Python36\\lib\\ipaddress.py',
   'PYMODULE'),
  ('ssl',
   'C:\\Users\\ZaeWon\\AppData\\Local\\Programs\\Python\\Python36\\lib\\ssl.py',
   'PYMODULE'),
  ('http.client',
   'C:\\Users\\ZaeWon\\AppData\\Local\\Programs\\Python\\Python36\\lib\\http\\client.py',
   'PYMODULE'),
  ('mimetypes',
   'C:\\Users\\ZaeWon\\AppData\\Local\\Programs\\Python\\Python36\\lib\\mimetypes.py',
   'PYMODULE'),
  ('socketserver',
   'C:\\Users\\ZaeWon\\AppData\\Local\\Programs\\Python\\Python36\\lib\\socketserver.py',
   'PYMODULE'),
  ('http',
   'C:\\Users\\ZaeWon\\AppData\\Local\\Programs\\Python\\Python36\\lib\\http\\__init__.py',
   'PYMODULE'),
  ('http.server',
   'C:\\Users\\ZaeWon\\AppData\\Local\\Programs\\Python\\Python36\\lib\\http\\server.py',
   'PYMODULE'),
  ('optparse',
   'C:\\Users\\ZaeWon\\AppData\\Local\\Programs\\Python\\Python36\\lib\\optparse.py',
   'PYMODULE'),
  ('uu',
   'C:\\Users\\ZaeWon\\AppData\\Local\\Programs\\Python\\Python36\\lib\\uu.py',
   'PYMODULE'),
  ('quopri',
   'C:\\Users\\ZaeWon\\AppData\\Local\\Programs\\Python\\Python36\\lib\\quopri.py',
   'PYMODULE'),
  ('email.feedparser',
   'C:\\Users\\ZaeWon\\AppData\\Local\\Programs\\Python\\Python36\\lib\\email\\feedparser.py',
   'PYMODULE'),
  ('email.parser',
   'C:\\Users\\ZaeWon\\AppData\\Local\\Programs\\Python\\Python36\\lib\\email\\parser.py',
   'PYMODULE'),
  ('email',
   'C:\\Users\\ZaeWon\\AppData\\Local\\Programs\\Python\\Python36\\lib\\email\\__init__.py',
   'PYMODULE'),
  ('calendar',
   'C:\\Users\\ZaeWon\\AppData\\Local\\Programs\\Python\\Python36\\lib\\calendar.py',
   'PYMODULE'),
  ('email._parseaddr',
   'C:\\Users\\ZaeWon\\AppData\\Local\\Programs\\Python\\Python36\\lib\\email\\_parseaddr.py',
   'PYMODULE'),
  ('email.utils',
   'C:\\Users\\ZaeWon\\AppData\\Local\\Programs\\Python\\Python36\\lib\\email\\utils.py',
   'PYMODULE'),
  ('email.errors',
   'C:\\Users\\ZaeWon\\AppData\\Local\\Programs\\Python\\Python36\\lib\\email\\errors.py',
   'PYMODULE'),
  ('email.header',
   'C:\\Users\\ZaeWon\\AppData\\Local\\Programs\\Python\\Python36\\lib\\email\\header.py',
   'PYMODULE'),
  ('email._policybase',
   'C:\\Users\\ZaeWon\\AppData\\Local\\Programs\\Python\\Python36\\lib\\email\\_policybase.py',
   'PYMODULE'),
  ('email.base64mime',
   'C:\\Users\\ZaeWon\\AppData\\Local\\Programs\\Python\\Python36\\lib\\email\\base64mime.py',
   'PYMODULE'),
  ('email.encoders',
   'C:\\Users\\ZaeWon\\AppData\\Local\\Programs\\Python\\Python36\\lib\\email\\encoders.py',
   'PYMODULE'),
  ('email.charset',
   'C:\\Users\\ZaeWon\\AppData\\Local\\Programs\\Python\\Python36\\lib\\email\\charset.py',
   'PYMODULE'),
  ('base64',
   'C:\\Users\\ZaeWon\\AppData\\Local\\Programs\\Python\\Python36\\lib\\base64.py',
   'PYMODULE'),
  ('email._encoded_words',
   'C:\\Users\\ZaeWon\\AppData\\Local\\Programs\\Python\\Python36\\lib\\email\\_encoded_words.py',
   'PYMODULE'),
  ('hashlib',
   'C:\\Users\\ZaeWon\\AppData\\Local\\Programs\\Python\\Python36\\lib\\hashlib.py',
   'PYMODULE'),
  ('bisect',
   'C:\\Users\\ZaeWon\\AppData\\Local\\Programs\\Python\\Python36\\lib\\bisect.py',
   'PYMODULE'),
  ('random',
   'C:\\Users\\ZaeWon\\AppData\\Local\\Programs\\Python\\Python36\\lib\\random.py',
   'PYMODULE'),
  ('email.generator',
   'C:\\Users\\ZaeWon\\AppData\\Local\\Programs\\Python\\Python36\\lib\\email\\generator.py',
   'PYMODULE'),
  ('email.iterators',
   'C:\\Users\\ZaeWon\\AppData\\Local\\Programs\\Python\\Python36\\lib\\email\\iterators.py',
   'PYMODULE'),
  ('urllib',
   'C:\\Users\\ZaeWon\\AppData\\Local\\Programs\\Python\\Python36\\lib\\urllib\\__init__.py',
   'PYMODULE'),
  ('email._header_value_parser',
   'C:\\Users\\ZaeWon\\AppData\\Local\\Programs\\Python\\Python36\\lib\\email\\_header_value_parser.py',
   'PYMODULE'),
  ('email.headerregistry',
   'C:\\Users\\ZaeWon\\AppData\\Local\\Programs\\Python\\Python36\\lib\\email\\headerregistry.py',
   'PYMODULE'),
  ('email.quoprimime',
   'C:\\Users\\ZaeWon\\AppData\\Local\\Programs\\Python\\Python36\\lib\\email\\quoprimime.py',
   'PYMODULE'),
  ('email.contentmanager',
   'C:\\Users\\ZaeWon\\AppData\\Local\\Programs\\Python\\Python36\\lib\\email\\contentmanager.py',
   'PYMODULE'),
  ('email.policy',
   'C:\\Users\\ZaeWon\\AppData\\Local\\Programs\\Python\\Python36\\lib\\email\\policy.py',
   'PYMODULE'),
  ('email.message',
   'C:\\Users\\ZaeWon\\AppData\\Local\\Programs\\Python\\Python36\\lib\\email\\message.py',
   'PYMODULE'),
  ('bz2',
   'C:\\Users\\ZaeWon\\AppData\\Local\\Programs\\Python\\Python36\\lib\\bz2.py',
   'PYMODULE'),
  ('lzma',
   'C:\\Users\\ZaeWon\\AppData\\Local\\Programs\\Python\\Python36\\lib\\lzma.py',
   'PYMODULE'),
  ('_compression',
   'C:\\Users\\ZaeWon\\AppData\\Local\\Programs\\Python\\Python36\\lib\\_compression.py',
   'PYMODULE'),
  ('gzip',
   'C:\\Users\\ZaeWon\\AppData\\Local\\Programs\\Python\\Python36\\lib\\gzip.py',
   'PYMODULE'),
  ('tarfile',
   'C:\\Users\\ZaeWon\\AppData\\Local\\Programs\\Python\\Python36\\lib\\tarfile.py',
   'PYMODULE'),
  ('py_compile',
   'C:\\Users\\ZaeWon\\AppData\\Local\\Programs\\Python\\Python36\\lib\\py_compile.py',
   'PYMODULE'),
  ('zipfile',
   'C:\\Users\\ZaeWon\\AppData\\Local\\Programs\\Python\\Python36\\lib\\zipfile.py',
   'PYMODULE'),
  ('shutil',
   'C:\\Users\\ZaeWon\\AppData\\Local\\Programs\\Python\\Python36\\lib\\shutil.py',
   'PYMODULE'),
  ('socket',
   'C:\\Users\\ZaeWon\\AppData\\Local\\Programs\\Python\\Python36\\lib\\socket.py',
   'PYMODULE'),
  ('webbrowser',
   'C:\\Users\\ZaeWon\\AppData\\Local\\Programs\\Python\\Python36\\lib\\webbrowser.py',
   'PYMODULE'),
  ('pydoc',
   'C:\\Users\\ZaeWon\\AppData\\Local\\Programs\\Python\\Python36\\lib\\pydoc.py',
   'PYMODULE'),
  ('getopt',
   'C:\\Users\\ZaeWon\\AppData\\Local\\Programs\\Python\\Python36\\lib\\getopt.py',
   'PYMODULE'),
  ('pdb',
   'C:\\Users\\ZaeWon\\AppData\\Local\\Programs\\Python\\Python36\\lib\\pdb.py',
   'PYMODULE'),
  ('unittest.util',
   'C:\\Users\\ZaeWon\\AppData\\Local\\Programs\\Python\\Python36\\lib\\unittest\\util.py',
   'PYMODULE'),
  ('unittest.result',
   'C:\\Users\\ZaeWon\\AppData\\Local\\Programs\\Python\\Python36\\lib\\unittest\\result.py',
   'PYMODULE'),
  ('string',
   'C:\\Users\\ZaeWon\\AppData\\Local\\Programs\\Python\\Python36\\lib\\string.py',
   'PYMODULE'),
  ('logging',
   'C:\\Users\\ZaeWon\\AppData\\Local\\Programs\\Python\\Python36\\lib\\logging\\__init__.py',
   'PYMODULE'),
  ('unittest.case',
   'C:\\Users\\ZaeWon\\AppData\\Local\\Programs\\Python\\Python36\\lib\\unittest\\case.py',
   'PYMODULE'),
  ('unittest.suite',
   'C:\\Users\\ZaeWon\\AppData\\Local\\Programs\\Python\\Python36\\lib\\unittest\\suite.py',
   'PYMODULE'),
  ('unittest.loader',
   'C:\\Users\\ZaeWon\\AppData\\Local\\Programs\\Python\\Python36\\lib\\unittest\\loader.py',
   'PYMODULE'),
  ('unittest.runner',
   'C:\\Users\\ZaeWon\\AppData\\Local\\Programs\\Python\\Python36\\lib\\unittest\\runner.py',
   'PYMODULE'),
  ('unittest.main',
   'C:\\Users\\ZaeWon\\AppData\\Local\\Programs\\Python\\Python36\\lib\\unittest\\main.py',
   'PYMODULE'),
  ('unittest.signals',
   'C:\\Users\\ZaeWon\\AppData\\Local\\Programs\\Python\\Python36\\lib\\unittest\\signals.py',
   'PYMODULE'),
  ('unittest',
   'C:\\Users\\ZaeWon\\AppData\\Local\\Programs\\Python\\Python36\\lib\\unittest\\__init__.py',
   'PYMODULE'),
  ('doctest',
   'C:\\Users\\ZaeWon\\AppData\\Local\\Programs\\Python\\Python36\\lib\\doctest.py',
   'PYMODULE'),
  ('pprint',
   'C:\\Users\\ZaeWon\\AppData\\Local\\Programs\\Python\\Python36\\lib\\pprint.py',
   'PYMODULE'),
  ('pickle',
   'C:\\Users\\ZaeWon\\AppData\\Local\\Programs\\Python\\Python36\\lib\\pickle.py',
   'PYMODULE'),
  ('tracemalloc',
   'C:\\Users\\ZaeWon\\AppData\\Local\\Programs\\Python\\Python36\\lib\\tracemalloc.py',
   'PYMODULE'),
  ('warnings',
   'C:\\Users\\ZaeWon\\AppData\\Local\\Programs\\Python\\Python36\\lib\\warnings.py',
   'PYMODULE'),
  ('enum',
   'C:\\Users\\ZaeWon\\AppData\\Local\\Programs\\Python\\Python36\\lib\\enum.py',
   'PYMODULE'),
  ('signal',
   'C:\\Users\\ZaeWon\\AppData\\Local\\Programs\\Python\\Python36\\lib\\signal.py',
   'PYMODULE'),
  ('contextlib',
   'C:\\Users\\ZaeWon\\AppData\\Local\\Programs\\Python\\Python36\\lib\\contextlib.py',
   'PYMODULE'),
  ('_threading_local',
   'C:\\Users\\ZaeWon\\AppData\\Local\\Programs\\Python\\Python36\\lib\\_threading_local.py',
   'PYMODULE'),
  ('threading',
   'C:\\Users\\ZaeWon\\AppData\\Local\\Programs\\Python\\Python36\\lib\\threading.py',
   'PYMODULE'),
  ('selectors',
   'C:\\Users\\ZaeWon\\AppData\\Local\\Programs\\Python\\Python36\\lib\\selectors.py',
   'PYMODULE'),
  ('dummy_threading',
   'C:\\Users\\ZaeWon\\AppData\\Local\\Programs\\Python\\Python36\\lib\\dummy_threading.py',
   'PYMODULE'),
  ('subprocess',
   'C:\\Users\\ZaeWon\\AppData\\Local\\Programs\\Python\\Python36\\lib\\subprocess.py',
   'PYMODULE'),
  ('token',
   'C:\\Users\\ZaeWon\\AppData\\Local\\Programs\\Python\\Python36\\lib\\token.py',
   'PYMODULE'),
  ('copy',
   'C:\\Users\\ZaeWon\\AppData\\Local\\Programs\\Python\\Python36\\lib\\copy.py',
   'PYMODULE'),
  ('textwrap',
   'C:\\Users\\ZaeWon\\AppData\\Local\\Programs\\Python\\Python36\\lib\\textwrap.py',
   'PYMODULE'),
  ('struct',
   'C:\\Users\\ZaeWon\\AppData\\Local\\Programs\\Python\\Python36\\lib\\struct.py',
   'PYMODULE'),
  ('gettext',
   'C:\\Users\\ZaeWon\\AppData\\Local\\Programs\\Python\\Python36\\lib\\gettext.py',
   'PYMODULE'),
  ('argparse',
   'C:\\Users\\ZaeWon\\AppData\\Local\\Programs\\Python\\Python36\\lib\\argparse.py',
   'PYMODULE'),
  ('tokenize',
   'C:\\Users\\ZaeWon\\AppData\\Local\\Programs\\Python\\Python36\\lib\\tokenize.py',
   'PYMODULE'),
  ('_dummy_thread',
   'C:\\Users\\ZaeWon\\AppData\\Local\\Programs\\Python\\Python36\\lib\\_dummy_thread.py',
   'PYMODULE'),
  ('start_state',
   'C:\\2DGP\\2017-2DGP\\Labs\\UntilMusicFinished\\start_state.py',
   'PYMODULE'),
  ('pico2d',
   'C:\\Users\\ZaeWon\\AppData\\Local\\Programs\\Python\\Python36\\lib\\site-packages\\pico2d\\__init__.py',
   'PYMODULE'),
  ('pico2d.pico2d',
   'C:\\Users\\ZaeWon\\AppData\\Local\\Programs\\Python\\Python36\\lib\\site-packages\\pico2d\\pico2d.py',
   'PYMODULE'),
  ('sdl2.sdlmixer',
   'C:\\Users\\ZaeWon\\AppData\\Local\\Programs\\Python\\Python36\\lib\\site-packages\\sdl2\\sdlmixer.py',
   'PYMODULE'),
  ('sdl2.error',
   'C:\\Users\\ZaeWon\\AppData\\Local\\Programs\\Python\\Python36\\lib\\site-packages\\sdl2\\error.py',
   'PYMODULE'),
  ('sdl2.rwops',
   'C:\\Users\\ZaeWon\\AppData\\Local\\Programs\\Python\\Python36\\lib\\site-packages\\sdl2\\rwops.py',
   'PYMODULE'),
  ('sdl2.endian',
   'C:\\Users\\ZaeWon\\AppData\\Local\\Programs\\Python\\Python36\\lib\\site-packages\\sdl2\\endian.py',
   'PYMODULE'),
  ('sdl2.stdinc',
   'C:\\Users\\ZaeWon\\AppData\\Local\\Programs\\Python\\Python36\\lib\\site-packages\\sdl2\\stdinc.py',
   'PYMODULE'),
  ('sdl2.audio',
   'C:\\Users\\ZaeWon\\AppData\\Local\\Programs\\Python\\Python36\\lib\\site-packages\\sdl2\\audio.py',
   'PYMODULE'),
  ('sdl2.version',
   'C:\\Users\\ZaeWon\\AppData\\Local\\Programs\\Python\\Python36\\lib\\site-packages\\sdl2\\version.py',
   'PYMODULE'),
  ('sdl2.dll',
   'C:\\Users\\ZaeWon\\AppData\\Local\\Programs\\Python\\Python36\\lib\\site-packages\\sdl2\\dll.py',
   'PYMODULE'),
  ('sdl2.sdlttf',
   'C:\\Users\\ZaeWon\\AppData\\Local\\Programs\\Python\\Python36\\lib\\site-packages\\sdl2\\sdlttf.py',
   'PYMODULE'),
  ('sdl2.surface',
   'C:\\Users\\ZaeWon\\AppData\\Local\\Programs\\Python\\Python36\\lib\\site-packages\\sdl2\\surface.py',
   'PYMODULE'),
  ('sdl2.rect',
   'C:\\Users\\ZaeWon\\AppData\\Local\\Programs\\Python\\Python36\\lib\\site-packages\\sdl2\\rect.py',
   'PYMODULE'),
  ('sdl2.blendmode',
   'C:\\Users\\ZaeWon\\AppData\\Local\\Programs\\Python\\Python36\\lib\\site-packages\\sdl2\\blendmode.py',
   'PYMODULE'),
  ('sdl2.pixels',
   'C:\\Users\\ZaeWon\\AppData\\Local\\Programs\\Python\\Python36\\lib\\site-packages\\sdl2\\pixels.py',
   'PYMODULE'),
  ('sdl2.sdlimage',
   'C:\\Users\\ZaeWon\\AppData\\Local\\Programs\\Python\\Python36\\lib\\site-packages\\sdl2\\sdlimage.py',
   'PYMODULE'),
  ('sdl2.render',
   'C:\\Users\\ZaeWon\\AppData\\Local\\Programs\\Python\\Python36\\lib\\site-packages\\sdl2\\render.py',
   'PYMODULE'),
  ('sdl2.video',
   'C:\\Users\\ZaeWon\\AppData\\Local\\Programs\\Python\\Python36\\lib\\site-packages\\sdl2\\video.py',
   'PYMODULE'),
  ('sdl2',
   'C:\\Users\\ZaeWon\\AppData\\Local\\Programs\\Python\\Python36\\lib\\site-packages\\sdl2\\__init__.py',
   'PYMODULE'),
  ('sdl2.scancode',
   'C:\\Users\\ZaeWon\\AppData\\Local\\Programs\\Python\\Python36\\lib\\site-packages\\sdl2\\scancode.py',
   'PYMODULE'),
  ('sdl2.keycode',
   'C:\\Users\\ZaeWon\\AppData\\Local\\Programs\\Python\\Python36\\lib\\site-packages\\sdl2\\keycode.py',
   'PYMODULE'),
  ('sdl2.touch',
   'C:\\Users\\ZaeWon\\AppData\\Local\\Programs\\Python\\Python36\\lib\\site-packages\\sdl2\\touch.py',
   'PYMODULE'),
  ('sdl2.timer',
   'C:\\Users\\ZaeWon\\AppData\\Local\\Programs\\Python\\Python36\\lib\\site-packages\\sdl2\\timer.py',
   'PYMODULE'),
  ('sdl2.syswm',
   'C:\\Users\\ZaeWon\\AppData\\Local\\Programs\\Python\\Python36\\lib\\site-packages\\sdl2\\syswm.py',
   'PYMODULE'),
  ('sdl2.shape',
   'C:\\Users\\ZaeWon\\AppData\\Local\\Programs\\Python\\Python36\\lib\\site-packages\\sdl2\\shape.py',
   'PYMODULE'),
  ('sdl2.power',
   'C:\\Users\\ZaeWon\\AppData\\Local\\Programs\\Python\\Python36\\lib\\site-packages\\sdl2\\power.py',
   'PYMODULE'),
  ('sdl2.platform',
   'C:\\Users\\ZaeWon\\AppData\\Local\\Programs\\Python\\Python36\\lib\\site-packages\\sdl2\\platform.py',
   'PYMODULE'),
  ('sdl2.mouse',
   'C:\\Users\\ZaeWon\\AppData\\Local\\Programs\\Python\\Python36\\lib\\site-packages\\sdl2\\mouse.py',
   'PYMODULE'),
  ('sdl2.messagebox',
   'C:\\Users\\ZaeWon\\AppData\\Local\\Programs\\Python\\Python36\\lib\\site-packages\\sdl2\\messagebox.py',
   'PYMODULE'),
  ('sdl2.log',
   'C:\\Users\\ZaeWon\\AppData\\Local\\Programs\\Python\\Python36\\lib\\site-packages\\sdl2\\log.py',
   'PYMODULE'),
  ('sdl2.loadso',
   'C:\\Users\\ZaeWon\\AppData\\Local\\Programs\\Python\\Python36\\lib\\site-packages\\sdl2\\loadso.py',
   'PYMODULE'),
  ('sdl2.keyboard',
   'C:\\Users\\ZaeWon\\AppData\\Local\\Programs\\Python\\Python36\\lib\\site-packages\\sdl2\\keyboard.py',
   'PYMODULE'),
  ('sdl2.joystick',
   'C:\\Users\\ZaeWon\\AppData\\Local\\Programs\\Python\\Python36\\lib\\site-packages\\sdl2\\joystick.py',
   'PYMODULE'),
  ('sdl2.hints',
   'C:\\Users\\ZaeWon\\AppData\\Local\\Programs\\Python\\Python36\\lib\\site-packages\\sdl2\\hints.py',
   'PYMODULE'),
  ('sdl2.haptic',
   'C:\\Users\\ZaeWon\\AppData\\Local\\Programs\\Python\\Python36\\lib\\site-packages\\sdl2\\haptic.py',
   'PYMODULE'),
  ('sdl2.gesture',
   'C:\\Users\\ZaeWon\\AppData\\Local\\Programs\\Python\\Python36\\lib\\site-packages\\sdl2\\gesture.py',
   'PYMODULE'),
  ('sdl2.gamecontroller',
   'C:\\Users\\ZaeWon\\AppData\\Local\\Programs\\Python\\Python36\\lib\\site-packages\\sdl2\\gamecontroller.py',
   'PYMODULE'),
  ('sdl2.filesystem',
   'C:\\Users\\ZaeWon\\AppData\\Local\\Programs\\Python\\Python36\\lib\\site-packages\\sdl2\\filesystem.py',
   'PYMODULE'),
  ('sdl2.events',
   'C:\\Users\\ZaeWon\\AppData\\Local\\Programs\\Python\\Python36\\lib\\site-packages\\sdl2\\events.py',
   'PYMODULE'),
  ('sdl2.cpuinfo',
   'C:\\Users\\ZaeWon\\AppData\\Local\\Programs\\Python\\Python36\\lib\\site-packages\\sdl2\\cpuinfo.py',
   'PYMODULE'),
  ('sdl2.clipboard',
   'C:\\Users\\ZaeWon\\AppData\\Local\\Programs\\Python\\Python36\\lib\\site-packages\\sdl2\\clipboard.py',
   'PYMODULE'),
  ('json',
   'C:\\Users\\ZaeWon\\AppData\\Local\\Programs\\Python\\Python36\\lib\\json\\__init__.py',
   'PYMODULE'),
  ('json.encoder',
   'C:\\Users\\ZaeWon\\AppData\\Local\\Programs\\Python\\Python36\\lib\\json\\encoder.py',
   'PYMODULE'),
  ('json.decoder',
   'C:\\Users\\ZaeWon\\AppData\\Local\\Programs\\Python\\Python36\\lib\\json\\decoder.py',
   'PYMODULE'),
  ('json.scanner',
   'C:\\Users\\ZaeWon\\AppData\\Local\\Programs\\Python\\Python36\\lib\\json\\scanner.py',
   'PYMODULE'),
  ('title_state',
   'C:\\2DGP\\2017-2DGP\\Labs\\UntilMusicFinished\\title_state.py',
   'PYMODULE'),
  ('pygame',
   'C:\\Users\\ZaeWon\\AppData\\Local\\Programs\\Python\\Python36\\lib\\site-packages\\pygame\\__init__.py',
   'PYMODULE'),
  ('pygame.colordict',
   'C:\\Users\\ZaeWon\\AppData\\Local\\Programs\\Python\\Python36\\lib\\site-packages\\pygame\\colordict.py',
   'PYMODULE'),
  ('pygame.macosx',
   'C:\\Users\\ZaeWon\\AppData\\Local\\Programs\\Python\\Python36\\lib\\site-packages\\pygame\\macosx.py',
   'PYMODULE'),
  ('pygame.pkgdata',
   'C:\\Users\\ZaeWon\\AppData\\Local\\Programs\\Python\\Python36\\lib\\site-packages\\pygame\\pkgdata.py',
   'PYMODULE'),
  ('pygame.sndarray',
   'C:\\Users\\ZaeWon\\AppData\\Local\\Programs\\Python\\Python36\\lib\\site-packages\\pygame\\sndarray.py',
   'PYMODULE'),
  ('pygame._numpysndarray',
   'C:\\Users\\ZaeWon\\AppData\\Local\\Programs\\Python\\Python36\\lib\\site-packages\\pygame\\_numpysndarray.py',
   'PYMODULE'),
  ('pygame.surfarray',
   'C:\\Users\\ZaeWon\\AppData\\Local\\Programs\\Python\\Python36\\lib\\site-packages\\pygame\\surfarray.py',
   'PYMODULE'),
  ('pygame._numpysurfarray',
   'C:\\Users\\ZaeWon\\AppData\\Local\\Programs\\Python\\Python36\\lib\\site-packages\\pygame\\_numpysurfarray.py',
   'PYMODULE'),
  ('pygame.sysfont',
   'C:\\Users\\ZaeWon\\AppData\\Local\\Programs\\Python\\Python36\\lib\\site-packages\\pygame\\sysfont.py',
   'PYMODULE'),
  ('pygame.ftfont',
   'C:\\Users\\ZaeWon\\AppData\\Local\\Programs\\Python\\Python36\\lib\\site-packages\\pygame\\ftfont.py',
   'PYMODULE'),
  ('pygame.threads',
   'C:\\Users\\ZaeWon\\AppData\\Local\\Programs\\Python\\Python36\\lib\\site-packages\\pygame\\threads\\__init__.py',
   'PYMODULE'),
  ('pygame.sprite',
   'C:\\Users\\ZaeWon\\AppData\\Local\\Programs\\Python\\Python36\\lib\\site-packages\\pygame\\sprite.py',
   'PYMODULE'),
  ('pygame.cursors',
   'C:\\Users\\ZaeWon\\AppData\\Local\\Programs\\Python\\Python36\\lib\\site-packages\\pygame\\cursors.py',
   'PYMODULE'),
  ('pygame.compat',
   'C:\\Users\\ZaeWon\\AppData\\Local\\Programs\\Python\\Python36\\lib\\site-packages\\pygame\\compat.py',
   'PYMODULE'),
  ('pygame.version',
   'C:\\Users\\ZaeWon\\AppData\\Local\\Programs\\Python\\Python36\\lib\\site-packages\\pygame\\version.py',
   'PYMODULE'),
  ('main_state',
   'C:\\2DGP\\2017-2DGP\\Labs\\UntilMusicFinished\\main_state.py',
   'PYMODULE'),
  ('maker_title_state',
   'C:\\2DGP\\2017-2DGP\\Labs\\UntilMusicFinished\\maker_title_state.py',
   'PYMODULE'),
  ('maker_state',
   'C:\\2DGP\\2017-2DGP\\Labs\\UntilMusicFinished\\maker_state.py',
   'PYMODULE'),
  ('lol_play_state',
   'C:\\2DGP\\2017-2DGP\\Labs\\UntilMusicFinished\\lol_play_state.py',
   'PYMODULE'),
  ('pause_state',
   'C:\\2DGP\\2017-2DGP\\Labs\\UntilMusicFinished\\pause_state.py',
   'PYMODULE'),
  ('mitis_play_state',
   'C:\\2DGP\\2017-2DGP\\Labs\\UntilMusicFinished\\mitis_play_state.py',
   'PYMODULE'),
  ('ncs_play_state',
   'C:\\2DGP\\2017-2DGP\\Labs\\UntilMusicFinished\\ncs_play_state.py',
   'PYMODULE'),
  ('SAO_play_state',
   'C:\\2DGP\\2017-2DGP\\Labs\\UntilMusicFinished\\SAO_play_state.py',
   'PYMODULE'),
  ('five_play_state',
   'C:\\2DGP\\2017-2DGP\\Labs\\UntilMusicFinished\\five_play_state.py',
   'PYMODULE'),
  ('produce101_play_state',
   'C:\\2DGP\\2017-2DGP\\Labs\\UntilMusicFinished\\produce101_play_state.py',
   'PYMODULE'),
  ('blackpink_play_state',
   'C:\\2DGP\\2017-2DGP\\Labs\\UntilMusicFinished\\blackpink_play_state.py',
   'PYMODULE'),
  ('game_framework',
   'C:\\2DGP\\2017-2DGP\\Labs\\UntilMusicFinished\\game_framework.py',
   'PYMODULE'),
  ('os',
   'C:\\Users\\ZaeWon\\AppData\\Local\\Programs\\Python\\Python36\\lib\\os.py',
   'PYMODULE'),
  ('platform',
   'C:\\Users\\ZaeWon\\AppData\\Local\\Programs\\Python\\Python36\\lib\\platform.py',
   'PYMODULE')])
